{
  "results": {
    "fileId": 4,
    "fileData": {
      "id": 4,
      "title": "Task 5",
      "mediaId": 65,
      "analysed": false,
      "mediaUrl": "https://points-of-discontinuity-objects.s3.eu-central-1.amazonaws.com/Ferneyhough_Time_And_Motion_Study_I_b0e717fca6.mp3",
      "webAudio": {},
      "mediaName": "Ferneyhough_TimeAndMotionStudyI.mp3",
      "description": "<p><span style=\"color:black;\">Ferneyhough, Brian, Time and Motion Study I, bass clarinet (1971–77)</span></p>",
      "clickSoundUrl": "https://points-of-discontinuity-objects.s3.eu-central-1.amazonaws.com/click_druminfected_1_fba408ea30.mp3",
      "offsetEndMarker": {
        "id": 9999,
        "time": 585.9759,
        "type": 1,
        "color": "#808080",
        "degree": 1
      },
      "offsetStartMarker": {
        "id": 0,
        "time": 2.4,
        "type": 1,
        "color": "#808080",
        "degree": 1
      },
      "totalAmountOfCues": 50,
      "mediaAlternativeText": ""
    },
    "combinedCues": {
      "0": {
        "id": "peaks.point.1",
        "time": 2.4,
        "color": "#808080",
        "deleted": false,
        "remarks": "Offset Start Time Marker",
        "editable": false,
        "labelText": "  ",
        "validated": true,
        "timeValues": [
          2.4
        ],
        "descriptors": [],
        "markerDegree": 1,
        "pointerHeight": 20,
        "descriptorAfterActive": false,
        "descriptorBeforeActive": false
      },
      "1": {
        "id": "peaks.point.9999",
        "time": 585.9759,
        "color": "#808080",
        "deleted": false,
        "remarks": "Offset End Time Marker",
        "editable": false,
        "labelText": "  ",
        "validated": true,
        "timeValues": [
          585.9759
        ],
        "descriptors": [],
        "markerDegree": 1,
        "pointerHeight": 20,
        "descriptorAfterActive": false,
        "descriptorBeforeActive": false
      },
      "2": {
        "id": "peaks.point.3",
        "time": 18.8778,
        "color": "rgb(59,130,246,1.0)",
        "deleted": false,
        "remarks": "",
        "editable": true,
        "labelText": "2",
        "validated": true,
        "timeValues": [
          21.740613
        ],
        "descriptors": [
          "222",
          "227",
          "206"
        ],
        "markerDegree": 2,
        "activeColumns": 1,
        "pointerHeight": 14,
        "itemsInAfterCol": 3,
        "itemsInBeforeCol": 0,
        "descriptorAfterActive": true,
        "descriptorBeforeActive": false
      },
      "3": {
        "id": "peaks.point.4",
        "time": 25.1124,
        "color": "rgb(239,68,68,1.0)",
        "deleted": false,
        "remarks": "",
        "editable": true,
        "labelText": "1",
        "validated": true,
        "timeValues": [
          24.049683
        ],
        "descriptors": [
          "222",
          "227"
        ],
        "markerDegree": 1,
        "activeColumns": 1,
        "pointerHeight": 20,
        "itemsInAfterCol": 2,
        "itemsInBeforeCol": 0,
        "descriptorAfterActive": true,
        "descriptorBeforeActive": false
      },
      "4": {
        "id": "peaks.point.5",
        "time": 29.43375,
        "color": "rgb(59,130,246,1.0)",
        "deleted": true,
        "remarks": "",
        "editable": true,
        "draggable": false,
        "labelText": "2",
        "validated": false,
        "timeValues": [
          29.43375
        ],
        "descriptors": [],
        "markerDegree": 2,
        "activeColumns": 0,
        "pointerHeight": 14,
        "itemsInAfterCol": 0,
        "itemsInBeforeCol": 0,
        "descriptorAfterActive": false,
        "descriptorBeforeActive": false
      },
      "5": {
        "id": "peaks.point.6",
        "time": 64.297419,
        "color": "rgb(59,130,246,1.0)",
        "deleted": true,
        "remarks": "",
        "editable": true,
        "draggable": false,
        "labelText": "2",
        "validated": false,
        "timeValues": [
          64.297419
        ],
        "descriptors": [],
        "markerDegree": 2,
        "activeColumns": 0,
        "pointerHeight": 14,
        "itemsInAfterCol": 0,
        "itemsInBeforeCol": 0,
        "descriptorAfterActive": false,
        "descriptorBeforeActive": false
      },
      "6": {
        "id": "peaks.point.7",
        "time": 81.026,
        "color": "rgba(34,197,94,1.0)",
        "deleted": false,
        "remarks": "",
        "editable": true,
        "labelText": "3",
        "validated": true,
        "timeValues": [
          81.217305
        ],
        "descriptors": [
          "220",
          "206"
        ],
        "markerDegree": 3,
        "activeColumns": 1,
        "pointerHeight": 10,
        "itemsInAfterCol": 2,
        "itemsInBeforeCol": 0,
        "descriptorAfterActive": true,
        "descriptorBeforeActive": false
      },
      "7": {
        "id": "peaks.point.8",
        "time": 90.941,
        "color": "rgb(59,130,246,1.0)",
        "deleted": false,
        "remarks": "",
        "editable": true,
        "labelText": "2",
        "validated": true,
        "timeValues": [
          91.617674
        ],
        "descriptors": [
          "113",
          "220"
        ],
        "markerDegree": 2,
        "activeColumns": 2,
        "pointerHeight": 14,
        "itemsInAfterCol": 1,
        "itemsInBeforeCol": 1,
        "descriptorAfterActive": true,
        "descriptorBeforeActive": true
      },
      "8": {
        "id": "peaks.point.9",
        "time": 107.3575,
        "color": "rgb(59,130,246,1.0)",
        "deleted": false,
        "remarks": "",
        "editable": true,
        "labelText": "2",
        "validated": true,
        "timeValues": [
          109.769695
        ],
        "descriptors": [
          "212"
        ],
        "markerDegree": 2,
        "activeColumns": 1,
        "pointerHeight": 14,
        "itemsInAfterCol": 1,
        "itemsInBeforeCol": 0,
        "descriptorAfterActive": true,
        "descriptorBeforeActive": false
      },
      "9": {
        "id": "peaks.point.10",
        "time": 116.5642,
        "color": "rgba(185,28,28,1.0)",
        "deleted": false,
        "remarks": "",
        "editable": true,
        "labelText": "1",
        "validated": true,
        "timeValues": [
          117.809748
        ],
        "descriptors": [
          "222",
          "224"
        ],
        "markerDegree": 1,
        "activeColumns": 1,
        "pointerHeight": 20,
        "itemsInAfterCol": 2,
        "itemsInBeforeCol": 0,
        "descriptorAfterActive": true,
        "descriptorBeforeActive": false
      },
      "10": {
        "id": "peaks.point.11",
        "time": 129.4861,
        "color": "rgba(29,78,216,1.0)",
        "deleted": false,
        "remarks": "",
        "editable": true,
        "labelText": "2",
        "validated": true,
        "timeValues": [
          130.609466
        ],
        "descriptors": [
          "223",
          "227"
        ],
        "markerDegree": 2,
        "activeColumns": 1,
        "pointerHeight": 14,
        "itemsInAfterCol": 2,
        "itemsInBeforeCol": 0,
        "descriptorAfterActive": true,
        "descriptorBeforeActive": false
      },
      "11": {
        "id": "peaks.point.12",
        "time": 145.913862,
        "color": "rgb(59,130,246,1.0)",
        "deleted": false,
        "remarks": "",
        "editable": true,
        "labelText": "2",
        "validated": true,
        "timeValues": [
          145.913862
        ],
        "descriptors": [
          "225"
        ],
        "markerDegree": 2,
        "activeColumns": 1,
        "pointerHeight": 14,
        "itemsInAfterCol": 1,
        "itemsInBeforeCol": 0,
        "descriptorAfterActive": true,
        "descriptorBeforeActive": false
      },
      "12": {
        "id": "peaks.point.13",
        "time": 152.0559,
        "color": "rgb(239,68,68,1.0)",
        "deleted": false,
        "remarks": "",
        "editable": true,
        "labelText": "1",
        "validated": true,
        "timeValues": [
          153.64148
        ],
        "descriptors": [
          "226",
          "206",
          "227"
        ],
        "markerDegree": 1,
        "activeColumns": 1,
        "pointerHeight": 20,
        "itemsInAfterCol": 3,
        "itemsInBeforeCol": 0,
        "descriptorAfterActive": true,
        "descriptorBeforeActive": false
      },
      "13": {
        "id": "peaks.point.14",
        "time": 164.2463,
        "color": "rgb(59,130,246,1.0)",
        "deleted": false,
        "remarks": "",
        "editable": true,
        "labelText": "2",
        "validated": true,
        "timeValues": [
          166.025684
        ],
        "descriptors": [
          "225",
          "226",
          "207"
        ],
        "markerDegree": 2,
        "activeColumns": 1,
        "pointerHeight": 14,
        "itemsInAfterCol": 3,
        "itemsInBeforeCol": 0,
        "descriptorAfterActive": true,
        "descriptorBeforeActive": false
      },
      "14": {
        "id": "peaks.point.15",
        "time": 168.902,
        "color": "rgb(239,68,68,1.0)",
        "deleted": false,
        "remarks": "",
        "editable": true,
        "labelText": "1",
        "validated": true,
        "timeValues": [
          170.017619
        ],
        "descriptors": [
          "206",
          "226",
          "227"
        ],
        "markerDegree": 1,
        "activeColumns": 1,
        "pointerHeight": 20,
        "itemsInAfterCol": 3,
        "itemsInBeforeCol": 0,
        "descriptorAfterActive": true,
        "descriptorBeforeActive": false
      },
      "15": {
        "id": "peaks.point.16",
        "time": 184.8889,
        "color": "rgb(59,130,246,1.0)",
        "deleted": false,
        "remarks": "",
        "editable": true,
        "labelText": "2",
        "validated": true,
        "timeValues": [
          187.585649
        ],
        "descriptors": [
          "207",
          "226"
        ],
        "markerDegree": 2,
        "activeColumns": 1,
        "pointerHeight": 14,
        "itemsInAfterCol": 2,
        "itemsInBeforeCol": 0,
        "descriptorAfterActive": true,
        "descriptorBeforeActive": false
      },
      "16": {
        "id": "peaks.point.17",
        "time": 195.3611,
        "color": "rgba(29,78,216,1.0)",
        "deleted": false,
        "remarks": "",
        "editable": true,
        "labelText": "2",
        "validated": true,
        "timeValues": [
          197.008837
        ],
        "descriptors": [
          "226",
          "225",
          "207"
        ],
        "markerDegree": 2,
        "activeColumns": 1,
        "pointerHeight": 14,
        "itemsInAfterCol": 3,
        "itemsInBeforeCol": 0,
        "descriptorAfterActive": true,
        "descriptorBeforeActive": false
      },
      "17": {
        "id": "peaks.point.18",
        "time": 221.6809,
        "color": "rgba(4,120,87,1.0)",
        "deleted": false,
        "remarks": "",
        "editable": true,
        "labelText": "3",
        "validated": true,
        "timeValues": [
          222.649565
        ],
        "descriptors": [
          "225"
        ],
        "markerDegree": 3,
        "activeColumns": 1,
        "pointerHeight": 10,
        "itemsInAfterCol": 1,
        "itemsInBeforeCol": 0,
        "descriptorAfterActive": true,
        "descriptorBeforeActive": false
      },
      "18": {
        "id": "peaks.point.19",
        "time": 237.6562,
        "color": "rgba(34,197,94,1.0)",
        "deleted": false,
        "remarks": "",
        "editable": true,
        "labelText": "3",
        "validated": false,
        "timeValues": [
          236.801577
        ],
        "descriptors": [],
        "markerDegree": 3,
        "activeColumns": 0,
        "pointerHeight": 10,
        "itemsInAfterCol": 0,
        "itemsInBeforeCol": 0,
        "descriptorAfterActive": false,
        "descriptorBeforeActive": false
      },
      "19": {
        "id": "peaks.point.20",
        "time": 255.582,
        "color": "rgba(34,197,94,1.0)",
        "deleted": false,
        "remarks": "",
        "editable": true,
        "labelText": "3",
        "validated": false,
        "timeValues": [
          256.745604
        ],
        "descriptors": [],
        "markerDegree": 3,
        "activeColumns": 0,
        "pointerHeight": 10,
        "itemsInAfterCol": 0,
        "itemsInBeforeCol": 0,
        "descriptorAfterActive": false,
        "descriptorBeforeActive": false
      },
      "20": {
        "id": "peaks.point.21",
        "time": 269.8739,
        "color": "rgb(239,68,68,1.0)",
        "deleted": false,
        "remarks": "",
        "editable": true,
        "labelText": "1",
        "validated": true,
        "timeValues": [
          271.840888
        ],
        "descriptors": [
          "222",
          "206"
        ],
        "markerDegree": 1,
        "activeColumns": 1,
        "pointerHeight": 20,
        "itemsInAfterCol": 2,
        "itemsInBeforeCol": 0,
        "descriptorAfterActive": true,
        "descriptorBeforeActive": false
      },
      "21": {
        "id": "peaks.point.22",
        "time": 284.9321,
        "color": "rgb(59,130,246,1.0)",
        "deleted": false,
        "remarks": "",
        "editable": true,
        "labelText": "2",
        "validated": true,
        "timeValues": [
          288.136945
        ],
        "descriptors": [
          "222",
          "225",
          "226"
        ],
        "markerDegree": 2,
        "activeColumns": 1,
        "pointerHeight": 14,
        "itemsInAfterCol": 3,
        "itemsInBeforeCol": 0,
        "descriptorAfterActive": true,
        "descriptorBeforeActive": false
      },
      "22": {
        "id": "peaks.point.23",
        "time": 306.039,
        "color": "rgb(239,68,68,1.0)",
        "deleted": false,
        "remarks": "",
        "editable": true,
        "labelText": "1",
        "validated": true,
        "timeValues": [
          310.521776
        ],
        "descriptors": [
          "224",
          "206"
        ],
        "markerDegree": 1,
        "activeColumns": 1,
        "pointerHeight": 20,
        "itemsInAfterCol": 2,
        "itemsInBeforeCol": 0,
        "descriptorAfterActive": true,
        "descriptorBeforeActive": false
      },
      "23": {
        "id": "peaks.point.24",
        "time": 322.89226,
        "color": "rgb(239,68,68,1.0)",
        "deleted": false,
        "remarks": "",
        "editable": true,
        "labelText": "1",
        "validated": true,
        "timeValues": [
          322.89226
        ],
        "descriptors": [
          "222",
          "227",
          "209"
        ],
        "markerDegree": 1,
        "activeColumns": 1,
        "pointerHeight": 20,
        "itemsInAfterCol": 3,
        "itemsInBeforeCol": 0,
        "descriptorAfterActive": true,
        "descriptorBeforeActive": false
      },
      "24": {
        "id": "peaks.point.25",
        "time": 339.4757,
        "color": "rgba(34,197,94,1.0)",
        "deleted": false,
        "remarks": "",
        "editable": true,
        "labelText": "3",
        "validated": false,
        "timeValues": [
          347.401639
        ],
        "descriptors": [],
        "markerDegree": 3,
        "activeColumns": 0,
        "pointerHeight": 10,
        "itemsInAfterCol": 0,
        "itemsInBeforeCol": 0,
        "descriptorAfterActive": false,
        "descriptorBeforeActive": false
      },
      "25": {
        "id": "peaks.point.26",
        "time": 360.0834,
        "color": "rgb(59,130,246,1.0)",
        "deleted": false,
        "remarks": "",
        "editable": true,
        "labelText": "2",
        "validated": true,
        "timeValues": [
          363.280799
        ],
        "descriptors": [
          "206"
        ],
        "markerDegree": 2,
        "activeColumns": 1,
        "pointerHeight": 14,
        "itemsInAfterCol": 1,
        "itemsInBeforeCol": 0,
        "descriptorAfterActive": true,
        "descriptorBeforeActive": false
      },
      "26": {
        "id": "peaks.point.27",
        "time": 381.5735,
        "color": "rgb(59,130,246,1.0)",
        "deleted": false,
        "remarks": "",
        "editable": true,
        "labelText": "2",
        "validated": true,
        "timeValues": [
          381.193661
        ],
        "descriptors": [
          "209",
          "208"
        ],
        "markerDegree": 2,
        "activeColumns": 1,
        "pointerHeight": 14,
        "itemsInAfterCol": 2,
        "itemsInBeforeCol": 0,
        "descriptorAfterActive": true,
        "descriptorBeforeActive": false
      },
      "27": {
        "id": "peaks.point.28",
        "time": 397.5721,
        "color": "rgba(185,28,28,1.0)",
        "deleted": false,
        "remarks": "",
        "editable": true,
        "labelText": "1",
        "validated": true,
        "timeValues": [
          397.969784
        ],
        "descriptors": [
          "222",
          "227",
          "226"
        ],
        "markerDegree": 1,
        "activeColumns": 1,
        "pointerHeight": 20,
        "itemsInAfterCol": 3,
        "itemsInBeforeCol": 0,
        "descriptorAfterActive": true,
        "descriptorBeforeActive": false
      },
      "28": {
        "id": "peaks.point.29",
        "time": 412.3167,
        "color": "rgb(239,68,68,1.0)",
        "deleted": false,
        "remarks": "",
        "editable": true,
        "labelText": "1",
        "validated": true,
        "timeValues": [
          415.673701
        ],
        "descriptors": [
          "206",
          "224",
          "222"
        ],
        "markerDegree": 1,
        "activeColumns": 1,
        "pointerHeight": 20,
        "itemsInAfterCol": 3,
        "itemsInBeforeCol": 0,
        "descriptorAfterActive": true,
        "descriptorBeforeActive": false
      },
      "29": {
        "id": "peaks.point.30",
        "time": 435.8153,
        "color": "rgb(59,130,246,1.0)",
        "deleted": false,
        "remarks": "",
        "editable": true,
        "labelText": "2",
        "validated": true,
        "timeValues": [
          436.048845
        ],
        "descriptors": [
          "212",
          "206",
          "224"
        ],
        "markerDegree": 2,
        "activeColumns": 1,
        "pointerHeight": 14,
        "itemsInAfterCol": 3,
        "itemsInBeforeCol": 0,
        "descriptorAfterActive": true,
        "descriptorBeforeActive": false
      },
      "30": {
        "id": "peaks.point.31",
        "time": 450.2581,
        "color": "rgb(59,130,246,1.0)",
        "deleted": false,
        "remarks": "",
        "editable": true,
        "labelText": "2",
        "validated": true,
        "timeValues": [
          453.377365
        ],
        "descriptors": [
          "224",
          "222"
        ],
        "markerDegree": 2,
        "activeColumns": 1,
        "pointerHeight": 14,
        "itemsInAfterCol": 2,
        "itemsInBeforeCol": 0,
        "descriptorAfterActive": true,
        "descriptorBeforeActive": false
      },
      "31": {
        "id": "peaks.point.32",
        "time": 477.6112,
        "color": "rgb(59,130,246,1.0)",
        "deleted": false,
        "remarks": "",
        "editable": true,
        "labelText": "2",
        "validated": true,
        "timeValues": [
          476.569632
        ],
        "descriptors": [
          "224"
        ],
        "markerDegree": 2,
        "activeColumns": 1,
        "pointerHeight": 14,
        "itemsInAfterCol": 1,
        "itemsInBeforeCol": 0,
        "descriptorAfterActive": true,
        "descriptorBeforeActive": false
      },
      "32": {
        "id": "peaks.point.33",
        "time": 489.5927,
        "color": "rgb(59,130,246,1.0)",
        "deleted": false,
        "remarks": "",
        "editable": true,
        "labelText": "2",
        "validated": true,
        "timeValues": [
          490.437126
        ],
        "descriptors": [
          "212",
          "225"
        ],
        "markerDegree": 2,
        "activeColumns": 1,
        "pointerHeight": 14,
        "itemsInAfterCol": 2,
        "itemsInBeforeCol": 0,
        "descriptorAfterActive": true,
        "descriptorBeforeActive": false
      },
      "33": {
        "id": "peaks.point.34",
        "time": 513.4396,
        "color": "rgb(239,68,68,1.0)",
        "deleted": false,
        "remarks": "",
        "editable": true,
        "labelText": "1",
        "validated": true,
        "timeValues": [
          514.352968
        ],
        "descriptors": [
          "227"
        ],
        "markerDegree": 1,
        "activeColumns": 1,
        "pointerHeight": 20,
        "itemsInAfterCol": 1,
        "itemsInBeforeCol": 0,
        "descriptorAfterActive": true,
        "descriptorBeforeActive": false
      },
      "34": {
        "id": "peaks.point.35",
        "time": 528.7764,
        "color": "rgba(34,197,94,1.0)",
        "deleted": false,
        "remarks": "",
        "editable": true,
        "labelText": "3",
        "validated": false,
        "timeValues": [
          530.561563
        ],
        "descriptors": [],
        "markerDegree": 3,
        "activeColumns": 0,
        "pointerHeight": 10,
        "itemsInAfterCol": 0,
        "itemsInBeforeCol": 0,
        "descriptorAfterActive": false,
        "descriptorBeforeActive": false
      },
      "35": {
        "id": "peaks.point.36",
        "time": 564.129676,
        "color": "rgba(34,197,94,1.0)",
        "deleted": true,
        "remarks": "",
        "editable": true,
        "draggable": false,
        "labelText": "3",
        "validated": false,
        "timeValues": [
          564.129676
        ],
        "descriptors": [],
        "markerDegree": 3,
        "activeColumns": 0,
        "pointerHeight": 10,
        "itemsInAfterCol": 0,
        "itemsInBeforeCol": 0,
        "descriptorAfterActive": false,
        "descriptorBeforeActive": false
      },
      "36": {
        "id": "peaks.point.37",
        "time": 4.179591,
        "color": "rgba(29,78,216,1.0)",
        "deleted": false,
        "remarks": "",
        "editable": true,
        "labelText": "2",
        "validated": true,
        "descriptors": [
          "202"
        ],
        "markerDegree": 2,
        "activeColumns": 1,
        "pointerHeight": 14,
        "itemsInAfterCol": 1,
        "itemsInBeforeCol": 0,
        "descriptorAfterActive": true,
        "descriptorBeforeActive": false
      },
      "37": {
        "id": "peaks.point.38",
        "time": 32.774965,
        "color": "rgba(4,120,87,1.0)",
        "deleted": false,
        "remarks": "",
        "editable": true,
        "labelText": "3",
        "validated": true,
        "descriptors": [
          "220"
        ],
        "markerDegree": 3,
        "activeColumns": 1,
        "pointerHeight": 10,
        "itemsInAfterCol": 1,
        "itemsInBeforeCol": 0,
        "descriptorAfterActive": true,
        "descriptorBeforeActive": false
      },
      "38": {
        "id": "peaks.point.39",
        "time": 190.078548,
        "color": "rgba(29,78,216,1.0)",
        "deleted": false,
        "remarks": "",
        "editable": true,
        "labelText": "2",
        "validated": true,
        "descriptors": [
          "206",
          "226"
        ],
        "markerDegree": 2,
        "activeColumns": 1,
        "pointerHeight": 14,
        "itemsInAfterCol": 2,
        "itemsInBeforeCol": 0,
        "descriptorAfterActive": true,
        "descriptorBeforeActive": false
      },
      "39": {
        "id": "peaks.point.40",
        "time": 198.182312,
        "color": "rgba(29,78,216,1.0)",
        "deleted": false,
        "remarks": "",
        "editable": true,
        "labelText": "2",
        "validated": true,
        "descriptors": [
          "206",
          "226"
        ],
        "markerDegree": 2,
        "activeColumns": 1,
        "pointerHeight": 14,
        "itemsInAfterCol": 2,
        "itemsInBeforeCol": 0,
        "descriptorAfterActive": true,
        "descriptorBeforeActive": false
      },
      "40": {
        "id": "peaks.point.41",
        "time": 244.239092,
        "color": "rgba(29,78,216,1.0)",
        "deleted": false,
        "remarks": "",
        "editable": true,
        "labelText": "2",
        "validated": true,
        "descriptors": [
          "224",
          "222"
        ],
        "markerDegree": 2,
        "activeColumns": 1,
        "pointerHeight": 14,
        "itemsInAfterCol": 2,
        "itemsInBeforeCol": 0,
        "descriptorAfterActive": true,
        "descriptorBeforeActive": false
      },
      "41": {
        "id": "peaks.point.42",
        "time": 262.664126,
        "color": "rgba(29,78,216,1.0)",
        "deleted": false,
        "remarks": "",
        "editable": true,
        "labelText": "2",
        "validated": true,
        "descriptors": [
          "224"
        ],
        "markerDegree": 2,
        "activeColumns": 1,
        "pointerHeight": 14,
        "itemsInAfterCol": 1,
        "itemsInBeforeCol": 0,
        "descriptorAfterActive": true,
        "descriptorBeforeActive": false
      },
      "42": {
        "id": "peaks.point.43",
        "time": 422.092335,
        "color": "rgba(29,78,216,1.0)",
        "deleted": false,
        "remarks": "",
        "editable": true,
        "labelText": "2",
        "validated": true,
        "descriptors": [
          "224",
          "222"
        ],
        "markerDegree": 2,
        "activeColumns": 1,
        "pointerHeight": 14,
        "itemsInAfterCol": 2,
        "itemsInBeforeCol": 0,
        "descriptorAfterActive": true,
        "descriptorBeforeActive": false
      },
      "43": {
        "id": "peaks.point.44",
        "time": 462.239637,
        "color": "rgba(185,28,28,1.0)",
        "deleted": false,
        "remarks": "",
        "editable": true,
        "labelText": "1",
        "validated": true,
        "descriptors": [
          "206",
          "222",
          "224"
        ],
        "markerDegree": 1,
        "activeColumns": 1,
        "pointerHeight": 20,
        "itemsInAfterCol": 3,
        "itemsInBeforeCol": 0,
        "descriptorAfterActive": true,
        "descriptorBeforeActive": false
      },
      "44": {
        "id": "peaks.point.45",
        "time": 539.747845,
        "color": "rgba(29,78,216,1.0)",
        "deleted": false,
        "remarks": "",
        "editable": true,
        "labelText": "2",
        "validated": true,
        "descriptors": [
          "220",
          "226"
        ],
        "markerDegree": 2,
        "activeColumns": 1,
        "pointerHeight": 14,
        "itemsInAfterCol": 2,
        "itemsInBeforeCol": 0,
        "descriptorAfterActive": true,
        "descriptorBeforeActive": false
      }
    },
    "cuesOfStepOne": [
      {
        "id": "peaks.point.1",
        "time": 2.4,
        "color": "#808080",
        "deleted": false,
        "remarks": "Offset Start Time Marker",
        "editable": false,
        "labelText": "  ",
        "validated": true,
        "timeValues": [
          2.4
        ],
        "descriptors": [],
        "markerDegree": 1,
        "pointerHeight": 20,
        "descriptorAfterActive": false,
        "descriptorBeforeActive": false
      },
      {
        "id": "peaks.point.9999",
        "time": 585.9759,
        "color": "#808080",
        "deleted": false,
        "remarks": "Offset End Time Marker",
        "editable": false,
        "labelText": "  ",
        "validated": true,
        "timeValues": [
          585.9759
        ],
        "descriptors": [],
        "markerDegree": 1,
        "pointerHeight": 20,
        "descriptorAfterActive": false,
        "descriptorBeforeActive": false
      },
      {
        "id": "peaks.point.3",
        "time": 18.8778,
        "color": "rgb(59,130,246,1.0)",
        "deleted": false,
        "remarks": "",
        "editable": true,
        "labelText": "2",
        "validated": true,
        "timeValues": [
          21.740613
        ],
        "descriptors": [
          "221",
          "226",
          "205"
        ],
        "markerDegree": 2,
        "activeColumns": 1,
        "pointerHeight": 14,
        "itemsInAfterCol": 3,
        "itemsInBeforeCol": 0,
        "descriptorAfterActive": true,
        "descriptorBeforeActive": false
      },
      {
        "id": "peaks.point.4",
        "time": 25.1124,
        "color": "rgb(239,68,68,1.0)",
        "deleted": false,
        "remarks": "",
        "editable": true,
        "labelText": "1",
        "validated": true,
        "timeValues": [
          24.049683
        ],
        "descriptors": [
          "221",
          "226"
        ],
        "markerDegree": 1,
        "activeColumns": 1,
        "pointerHeight": 20,
        "itemsInAfterCol": 2,
        "itemsInBeforeCol": 0,
        "descriptorAfterActive": true,
        "descriptorBeforeActive": false
      },
      {
        "id": "peaks.point.5",
        "time": 29.43375,
        "color": "rgb(59,130,246,1.0)",
        "deleted": true,
        "remarks": "",
        "editable": true,
        "draggable": false,
        "labelText": "2",
        "validated": false,
        "timeValues": [
          29.43375
        ],
        "descriptors": [],
        "markerDegree": 2,
        "activeColumns": 0,
        "pointerHeight": 14,
        "itemsInAfterCol": 0,
        "itemsInBeforeCol": 0,
        "descriptorAfterActive": false,
        "descriptorBeforeActive": false
      },
      {
        "id": "peaks.point.6",
        "time": 64.297419,
        "color": "rgb(59,130,246,1.0)",
        "deleted": true,
        "remarks": "",
        "editable": true,
        "draggable": false,
        "labelText": "2",
        "validated": false,
        "timeValues": [
          64.297419
        ],
        "descriptors": [],
        "markerDegree": 2,
        "activeColumns": 0,
        "pointerHeight": 14,
        "itemsInAfterCol": 0,
        "itemsInBeforeCol": 0,
        "descriptorAfterActive": false,
        "descriptorBeforeActive": false
      },
      {
        "id": "peaks.point.7",
        "time": 81.026,
        "color": "rgba(34,197,94,1.0)",
        "deleted": false,
        "remarks": "",
        "editable": true,
        "labelText": "3",
        "validated": true,
        "timeValues": [
          81.217305
        ],
        "descriptors": [
          "219",
          "205"
        ],
        "markerDegree": 3,
        "activeColumns": 1,
        "pointerHeight": 10,
        "itemsInAfterCol": 2,
        "itemsInBeforeCol": 0,
        "descriptorAfterActive": true,
        "descriptorBeforeActive": false
      },
      {
        "id": "peaks.point.8",
        "time": 90.941,
        "color": "rgb(59,130,246,1.0)",
        "deleted": false,
        "remarks": "",
        "editable": true,
        "labelText": "2",
        "validated": true,
        "timeValues": [
          91.617674
        ],
        "descriptors": [
          "112",
          "219"
        ],
        "markerDegree": 2,
        "activeColumns": 2,
        "pointerHeight": 14,
        "itemsInAfterCol": 1,
        "itemsInBeforeCol": 1,
        "descriptorAfterActive": true,
        "descriptorBeforeActive": true
      },
      {
        "id": "peaks.point.9",
        "time": 107.3575,
        "color": "rgb(59,130,246,1.0)",
        "deleted": false,
        "remarks": "",
        "editable": true,
        "labelText": "2",
        "validated": true,
        "timeValues": [
          109.769695
        ],
        "descriptors": [
          "211"
        ],
        "markerDegree": 2,
        "activeColumns": 1,
        "pointerHeight": 14,
        "itemsInAfterCol": 1,
        "itemsInBeforeCol": 0,
        "descriptorAfterActive": true,
        "descriptorBeforeActive": false
      },
      {
        "id": "peaks.point.10",
        "time": 116.5642,
        "color": "rgba(185,28,28,1.0)",
        "deleted": false,
        "remarks": "",
        "editable": true,
        "labelText": "1",
        "validated": true,
        "timeValues": [
          117.809748
        ],
        "descriptors": [
          "221",
          "223"
        ],
        "markerDegree": 1,
        "activeColumns": 1,
        "pointerHeight": 20,
        "itemsInAfterCol": 2,
        "itemsInBeforeCol": 0,
        "descriptorAfterActive": true,
        "descriptorBeforeActive": false
      },
      {
        "id": "peaks.point.11",
        "time": 129.4861,
        "color": "rgba(29,78,216,1.0)",
        "deleted": false,
        "remarks": "",
        "editable": true,
        "labelText": "2",
        "validated": true,
        "timeValues": [
          130.609466
        ],
        "descriptors": [
          "222",
          "226"
        ],
        "markerDegree": 2,
        "activeColumns": 1,
        "pointerHeight": 14,
        "itemsInAfterCol": 2,
        "itemsInBeforeCol": 0,
        "descriptorAfterActive": true,
        "descriptorBeforeActive": false
      },
      {
        "id": "peaks.point.12",
        "time": 145.913862,
        "color": "rgb(59,130,246,1.0)",
        "deleted": false,
        "remarks": "",
        "editable": true,
        "labelText": "2",
        "validated": true,
        "timeValues": [
          145.913862
        ],
        "descriptors": [
          "224"
        ],
        "markerDegree": 2,
        "activeColumns": 1,
        "pointerHeight": 14,
        "itemsInAfterCol": 1,
        "itemsInBeforeCol": 0,
        "descriptorAfterActive": true,
        "descriptorBeforeActive": false
      },
      {
        "id": "peaks.point.13",
        "time": 152.0559,
        "color": "rgb(239,68,68,1.0)",
        "deleted": false,
        "remarks": "",
        "editable": true,
        "labelText": "1",
        "validated": true,
        "timeValues": [
          153.64148
        ],
        "descriptors": [
          "225",
          "205",
          "226"
        ],
        "markerDegree": 1,
        "activeColumns": 1,
        "pointerHeight": 20,
        "itemsInAfterCol": 3,
        "itemsInBeforeCol": 0,
        "descriptorAfterActive": true,
        "descriptorBeforeActive": false
      },
      {
        "id": "peaks.point.14",
        "time": 164.2463,
        "color": "rgb(59,130,246,1.0)",
        "deleted": false,
        "remarks": "",
        "editable": true,
        "labelText": "2",
        "validated": true,
        "timeValues": [
          166.025684
        ],
        "descriptors": [
          "224",
          "225",
          "206"
        ],
        "markerDegree": 2,
        "activeColumns": 1,
        "pointerHeight": 14,
        "itemsInAfterCol": 3,
        "itemsInBeforeCol": 0,
        "descriptorAfterActive": true,
        "descriptorBeforeActive": false
      },
      {
        "id": "peaks.point.15",
        "time": 168.902,
        "color": "rgb(239,68,68,1.0)",
        "deleted": false,
        "remarks": "",
        "editable": true,
        "labelText": "1",
        "validated": true,
        "timeValues": [
          170.017619
        ],
        "descriptors": [
          "205",
          "225",
          "226"
        ],
        "markerDegree": 1,
        "activeColumns": 1,
        "pointerHeight": 20,
        "itemsInAfterCol": 3,
        "itemsInBeforeCol": 0,
        "descriptorAfterActive": true,
        "descriptorBeforeActive": false
      },
      {
        "id": "peaks.point.16",
        "time": 184.8889,
        "color": "rgb(59,130,246,1.0)",
        "deleted": false,
        "remarks": "",
        "editable": true,
        "labelText": "2",
        "validated": true,
        "timeValues": [
          187.585649
        ],
        "descriptors": [
          "206",
          "225"
        ],
        "markerDegree": 2,
        "activeColumns": 1,
        "pointerHeight": 14,
        "itemsInAfterCol": 2,
        "itemsInBeforeCol": 0,
        "descriptorAfterActive": true,
        "descriptorBeforeActive": false
      },
      {
        "id": "peaks.point.17",
        "time": 195.3611,
        "color": "rgba(29,78,216,1.0)",
        "deleted": false,
        "remarks": "",
        "editable": true,
        "labelText": "2",
        "validated": true,
        "timeValues": [
          197.008837
        ],
        "descriptors": [
          "225",
          "224",
          "206"
        ],
        "markerDegree": 2,
        "activeColumns": 1,
        "pointerHeight": 14,
        "itemsInAfterCol": 3,
        "itemsInBeforeCol": 0,
        "descriptorAfterActive": true,
        "descriptorBeforeActive": false
      },
      {
        "id": "peaks.point.18",
        "time": 221.6809,
        "color": "rgba(4,120,87,1.0)",
        "deleted": false,
        "remarks": "",
        "editable": true,
        "labelText": "3",
        "validated": true,
        "timeValues": [
          222.649565
        ],
        "descriptors": [
          "224"
        ],
        "markerDegree": 3,
        "activeColumns": 1,
        "pointerHeight": 10,
        "itemsInAfterCol": 1,
        "itemsInBeforeCol": 0,
        "descriptorAfterActive": true,
        "descriptorBeforeActive": false
      },
      {
        "id": "peaks.point.19",
        "time": 237.6562,
        "color": "rgba(34,197,94,1.0)",
        "deleted": false,
        "remarks": "",
        "editable": true,
        "labelText": "3",
        "validated": false,
        "timeValues": [
          236.801577
        ],
        "descriptors": [],
        "markerDegree": 3,
        "activeColumns": 0,
        "pointerHeight": 10,
        "itemsInAfterCol": 0,
        "itemsInBeforeCol": 0,
        "descriptorAfterActive": false,
        "descriptorBeforeActive": false
      },
      {
        "id": "peaks.point.20",
        "time": 255.582,
        "color": "rgba(34,197,94,1.0)",
        "deleted": false,
        "remarks": "",
        "editable": true,
        "labelText": "3",
        "validated": false,
        "timeValues": [
          256.745604
        ],
        "descriptors": [],
        "markerDegree": 3,
        "activeColumns": 0,
        "pointerHeight": 10,
        "itemsInAfterCol": 0,
        "itemsInBeforeCol": 0,
        "descriptorAfterActive": false,
        "descriptorBeforeActive": false
      },
      {
        "id": "peaks.point.21",
        "time": 269.8739,
        "color": "rgb(239,68,68,1.0)",
        "deleted": false,
        "remarks": "",
        "editable": true,
        "labelText": "1",
        "validated": true,
        "timeValues": [
          271.840888
        ],
        "descriptors": [
          "221",
          "205"
        ],
        "markerDegree": 1,
        "activeColumns": 1,
        "pointerHeight": 20,
        "itemsInAfterCol": 2,
        "itemsInBeforeCol": 0,
        "descriptorAfterActive": true,
        "descriptorBeforeActive": false
      },
      {
        "id": "peaks.point.22",
        "time": 284.9321,
        "color": "rgb(59,130,246,1.0)",
        "deleted": false,
        "remarks": "",
        "editable": true,
        "labelText": "2",
        "validated": true,
        "timeValues": [
          288.136945
        ],
        "descriptors": [
          "221",
          "224",
          "225"
        ],
        "markerDegree": 2,
        "activeColumns": 1,
        "pointerHeight": 14,
        "itemsInAfterCol": 3,
        "itemsInBeforeCol": 0,
        "descriptorAfterActive": true,
        "descriptorBeforeActive": false
      },
      {
        "id": "peaks.point.23",
        "time": 306.039,
        "color": "rgb(239,68,68,1.0)",
        "deleted": false,
        "remarks": "",
        "editable": true,
        "labelText": "1",
        "validated": true,
        "timeValues": [
          310.521776
        ],
        "descriptors": [
          "223",
          "205"
        ],
        "markerDegree": 1,
        "activeColumns": 1,
        "pointerHeight": 20,
        "itemsInAfterCol": 2,
        "itemsInBeforeCol": 0,
        "descriptorAfterActive": true,
        "descriptorBeforeActive": false
      },
      {
        "id": "peaks.point.24",
        "time": 322.89226,
        "color": "rgb(239,68,68,1.0)",
        "deleted": false,
        "remarks": "",
        "editable": true,
        "labelText": "1",
        "validated": true,
        "timeValues": [
          322.89226
        ],
        "descriptors": [
          "221",
          "226",
          "208"
        ],
        "markerDegree": 1,
        "activeColumns": 1,
        "pointerHeight": 20,
        "itemsInAfterCol": 3,
        "itemsInBeforeCol": 0,
        "descriptorAfterActive": true,
        "descriptorBeforeActive": false
      },
      {
        "id": "peaks.point.25",
        "time": 339.4757,
        "color": "rgba(34,197,94,1.0)",
        "deleted": false,
        "remarks": "",
        "editable": true,
        "labelText": "3",
        "validated": false,
        "timeValues": [
          347.401639
        ],
        "descriptors": [],
        "markerDegree": 3,
        "activeColumns": 0,
        "pointerHeight": 10,
        "itemsInAfterCol": 0,
        "itemsInBeforeCol": 0,
        "descriptorAfterActive": false,
        "descriptorBeforeActive": false
      },
      {
        "id": "peaks.point.26",
        "time": 360.0834,
        "color": "rgb(59,130,246,1.0)",
        "deleted": false,
        "remarks": "",
        "editable": true,
        "labelText": "2",
        "validated": true,
        "timeValues": [
          363.280799
        ],
        "descriptors": [
          "205"
        ],
        "markerDegree": 2,
        "activeColumns": 1,
        "pointerHeight": 14,
        "itemsInAfterCol": 1,
        "itemsInBeforeCol": 0,
        "descriptorAfterActive": true,
        "descriptorBeforeActive": false
      },
      {
        "id": "peaks.point.27",
        "time": 381.5735,
        "color": "rgb(59,130,246,1.0)",
        "deleted": false,
        "remarks": "",
        "editable": true,
        "labelText": "2",
        "validated": true,
        "timeValues": [
          381.193661
        ],
        "descriptors": [
          "208",
          "207"
        ],
        "markerDegree": 2,
        "activeColumns": 1,
        "pointerHeight": 14,
        "itemsInAfterCol": 2,
        "itemsInBeforeCol": 0,
        "descriptorAfterActive": true,
        "descriptorBeforeActive": false
      },
      {
        "id": "peaks.point.28",
        "time": 397.5721,
        "color": "rgba(185,28,28,1.0)",
        "deleted": false,
        "remarks": "",
        "editable": true,
        "labelText": "1",
        "validated": true,
        "timeValues": [
          397.969784
        ],
        "descriptors": [
          "221",
          "226",
          "225"
        ],
        "markerDegree": 1,
        "activeColumns": 1,
        "pointerHeight": 20,
        "itemsInAfterCol": 3,
        "itemsInBeforeCol": 0,
        "descriptorAfterActive": true,
        "descriptorBeforeActive": false
      },
      {
        "id": "peaks.point.29",
        "time": 412.3167,
        "color": "rgb(239,68,68,1.0)",
        "deleted": false,
        "remarks": "",
        "editable": true,
        "labelText": "1",
        "validated": true,
        "timeValues": [
          415.673701
        ],
        "descriptors": [
          "205",
          "223",
          "221"
        ],
        "markerDegree": 1,
        "activeColumns": 1,
        "pointerHeight": 20,
        "itemsInAfterCol": 3,
        "itemsInBeforeCol": 0,
        "descriptorAfterActive": true,
        "descriptorBeforeActive": false
      },
      {
        "id": "peaks.point.30",
        "time": 435.8153,
        "color": "rgb(59,130,246,1.0)",
        "deleted": false,
        "remarks": "",
        "editable": true,
        "labelText": "2",
        "validated": true,
        "timeValues": [
          436.048845
        ],
        "descriptors": [
          "211",
          "205",
          "223"
        ],
        "markerDegree": 2,
        "activeColumns": 1,
        "pointerHeight": 14,
        "itemsInAfterCol": 3,
        "itemsInBeforeCol": 0,
        "descriptorAfterActive": true,
        "descriptorBeforeActive": false
      },
      {
        "id": "peaks.point.31",
        "time": 450.2581,
        "color": "rgb(59,130,246,1.0)",
        "deleted": false,
        "remarks": "",
        "editable": true,
        "labelText": "2",
        "validated": true,
        "timeValues": [
          453.377365
        ],
        "descriptors": [
          "223",
          "221"
        ],
        "markerDegree": 2,
        "activeColumns": 1,
        "pointerHeight": 14,
        "itemsInAfterCol": 2,
        "itemsInBeforeCol": 0,
        "descriptorAfterActive": true,
        "descriptorBeforeActive": false
      },
      {
        "id": "peaks.point.32",
        "time": 477.6112,
        "color": "rgb(59,130,246,1.0)",
        "deleted": false,
        "remarks": "",
        "editable": true,
        "labelText": "2",
        "validated": true,
        "timeValues": [
          476.569632
        ],
        "descriptors": [
          "223"
        ],
        "markerDegree": 2,
        "activeColumns": 1,
        "pointerHeight": 14,
        "itemsInAfterCol": 1,
        "itemsInBeforeCol": 0,
        "descriptorAfterActive": true,
        "descriptorBeforeActive": false
      },
      {
        "id": "peaks.point.33",
        "time": 489.5927,
        "color": "rgb(59,130,246,1.0)",
        "deleted": false,
        "remarks": "",
        "editable": true,
        "labelText": "2",
        "validated": true,
        "timeValues": [
          490.437126
        ],
        "descriptors": [
          "211",
          "224"
        ],
        "markerDegree": 2,
        "activeColumns": 1,
        "pointerHeight": 14,
        "itemsInAfterCol": 2,
        "itemsInBeforeCol": 0,
        "descriptorAfterActive": true,
        "descriptorBeforeActive": false
      },
      {
        "id": "peaks.point.34",
        "time": 513.4396,
        "color": "rgb(239,68,68,1.0)",
        "deleted": false,
        "remarks": "",
        "editable": true,
        "labelText": "1",
        "validated": true,
        "timeValues": [
          514.352968
        ],
        "descriptors": [
          "226"
        ],
        "markerDegree": 1,
        "activeColumns": 1,
        "pointerHeight": 20,
        "itemsInAfterCol": 1,
        "itemsInBeforeCol": 0,
        "descriptorAfterActive": true,
        "descriptorBeforeActive": false
      },
      {
        "id": "peaks.point.35",
        "time": 528.7764,
        "color": "rgba(34,197,94,1.0)",
        "deleted": false,
        "remarks": "",
        "editable": true,
        "labelText": "3",
        "validated": false,
        "timeValues": [
          530.561563
        ],
        "descriptors": [],
        "markerDegree": 3,
        "activeColumns": 0,
        "pointerHeight": 10,
        "itemsInAfterCol": 0,
        "itemsInBeforeCol": 0,
        "descriptorAfterActive": false,
        "descriptorBeforeActive": false
      },
      {
        "id": "peaks.point.36",
        "time": 564.129676,
        "color": "rgba(34,197,94,1.0)",
        "deleted": true,
        "remarks": "",
        "editable": true,
        "draggable": false,
        "labelText": "3",
        "validated": false,
        "timeValues": [
          564.129676
        ],
        "descriptors": [],
        "markerDegree": 3,
        "activeColumns": 0,
        "pointerHeight": 10,
        "itemsInAfterCol": 0,
        "itemsInBeforeCol": 0,
        "descriptorAfterActive": false,
        "descriptorBeforeActive": false
      }
    ],
    "cuesOfStepTwo": [
      {
        "id": "peaks.point.1",
        "time": 2.4,
        "color": "#808080",
        "deleted": false,
        "remarks": "Offset Start Time Marker",
        "editable": false,
        "labelText": "  ",
        "validated": true,
        "timeValues": [
          2.4
        ],
        "descriptors": [],
        "markerDegree": 1,
        "pointerHeight": 20,
        "descriptorAfterActive": false,
        "descriptorBeforeActive": false
      },
      {
        "id": "peaks.point.9999",
        "time": 585.9759,
        "color": "#808080",
        "deleted": false,
        "remarks": "Offset End Time Marker",
        "editable": false,
        "labelText": "  ",
        "validated": true,
        "timeValues": [
          585.9759
        ],
        "descriptors": [],
        "markerDegree": 1,
        "pointerHeight": 20,
        "descriptorAfterActive": false,
        "descriptorBeforeActive": false
      },
      {
        "id": "peaks.point.3",
        "time": 18.8778,
        "color": "rgb(59,130,246,1.0)",
        "deleted": false,
        "remarks": "",
        "editable": true,
        "labelText": "2",
        "validated": true,
        "timeValues": [
          21.740613
        ],
        "descriptors": [
          "222",
          "227",
          "206"
        ],
        "markerDegree": 2,
        "activeColumns": 1,
        "pointerHeight": 14,
        "itemsInAfterCol": 3,
        "itemsInBeforeCol": 0,
        "descriptorAfterActive": true,
        "descriptorBeforeActive": false
      },
      {
        "id": "peaks.point.4",
        "time": 25.1124,
        "color": "rgb(239,68,68,1.0)",
        "deleted": false,
        "remarks": "",
        "editable": true,
        "labelText": "1",
        "validated": true,
        "timeValues": [
          24.049683
        ],
        "descriptors": [
          "222",
          "227"
        ],
        "markerDegree": 1,
        "activeColumns": 1,
        "pointerHeight": 20,
        "itemsInAfterCol": 2,
        "itemsInBeforeCol": 0,
        "descriptorAfterActive": true,
        "descriptorBeforeActive": false
      },
      {
        "id": "peaks.point.5",
        "time": 29.43375,
        "color": "rgb(59,130,246,1.0)",
        "deleted": true,
        "remarks": "",
        "editable": true,
        "draggable": false,
        "labelText": "2",
        "validated": false,
        "timeValues": [
          29.43375
        ],
        "descriptors": [],
        "markerDegree": 2,
        "activeColumns": 0,
        "pointerHeight": 14,
        "itemsInAfterCol": 0,
        "itemsInBeforeCol": 0,
        "descriptorAfterActive": false,
        "descriptorBeforeActive": false
      },
      {
        "id": "peaks.point.6",
        "time": 64.297419,
        "color": "rgb(59,130,246,1.0)",
        "deleted": true,
        "remarks": "",
        "editable": true,
        "draggable": false,
        "labelText": "2",
        "validated": false,
        "timeValues": [
          64.297419
        ],
        "descriptors": [],
        "markerDegree": 2,
        "activeColumns": 0,
        "pointerHeight": 14,
        "itemsInAfterCol": 0,
        "itemsInBeforeCol": 0,
        "descriptorAfterActive": false,
        "descriptorBeforeActive": false
      },
      {
        "id": "peaks.point.7",
        "time": 81.026,
        "color": "rgba(34,197,94,1.0)",
        "deleted": false,
        "remarks": "",
        "editable": true,
        "labelText": "3",
        "validated": true,
        "timeValues": [
          81.217305
        ],
        "descriptors": [
          "220",
          "206"
        ],
        "markerDegree": 3,
        "activeColumns": 1,
        "pointerHeight": 10,
        "itemsInAfterCol": 2,
        "itemsInBeforeCol": 0,
        "descriptorAfterActive": true,
        "descriptorBeforeActive": false
      },
      {
        "id": "peaks.point.8",
        "time": 90.941,
        "color": "rgb(59,130,246,1.0)",
        "deleted": false,
        "remarks": "",
        "editable": true,
        "labelText": "2",
        "validated": true,
        "timeValues": [
          91.617674
        ],
        "descriptors": [
          "113",
          "220"
        ],
        "markerDegree": 2,
        "activeColumns": 2,
        "pointerHeight": 14,
        "itemsInAfterCol": 1,
        "itemsInBeforeCol": 1,
        "descriptorAfterActive": true,
        "descriptorBeforeActive": true
      },
      {
        "id": "peaks.point.9",
        "time": 107.3575,
        "color": "rgb(59,130,246,1.0)",
        "deleted": false,
        "remarks": "",
        "editable": true,
        "labelText": "2",
        "validated": true,
        "timeValues": [
          109.769695
        ],
        "descriptors": [
          "212"
        ],
        "markerDegree": 2,
        "activeColumns": 1,
        "pointerHeight": 14,
        "itemsInAfterCol": 1,
        "itemsInBeforeCol": 0,
        "descriptorAfterActive": true,
        "descriptorBeforeActive": false
      },
      {
        "id": "peaks.point.10",
        "time": 116.5642,
        "color": "rgba(185,28,28,1.0)",
        "deleted": false,
        "remarks": "",
        "editable": true,
        "labelText": "1",
        "validated": true,
        "timeValues": [
          117.809748
        ],
        "descriptors": [
          "222",
          "224"
        ],
        "markerDegree": 1,
        "activeColumns": 1,
        "pointerHeight": 20,
        "itemsInAfterCol": 2,
        "itemsInBeforeCol": 0,
        "descriptorAfterActive": true,
        "descriptorBeforeActive": false
      },
      {
        "id": "peaks.point.11",
        "time": 129.4861,
        "color": "rgba(29,78,216,1.0)",
        "deleted": false,
        "remarks": "",
        "editable": true,
        "labelText": "2",
        "validated": true,
        "timeValues": [
          130.609466
        ],
        "descriptors": [
          "223",
          "227"
        ],
        "markerDegree": 2,
        "activeColumns": 1,
        "pointerHeight": 14,
        "itemsInAfterCol": 2,
        "itemsInBeforeCol": 0,
        "descriptorAfterActive": true,
        "descriptorBeforeActive": false
      },
      {
        "id": "peaks.point.12",
        "time": 145.913862,
        "color": "rgb(59,130,246,1.0)",
        "deleted": false,
        "remarks": "",
        "editable": true,
        "labelText": "2",
        "validated": true,
        "timeValues": [
          145.913862
        ],
        "descriptors": [
          "225"
        ],
        "markerDegree": 2,
        "activeColumns": 1,
        "pointerHeight": 14,
        "itemsInAfterCol": 1,
        "itemsInBeforeCol": 0,
        "descriptorAfterActive": true,
        "descriptorBeforeActive": false
      },
      {
        "id": "peaks.point.13",
        "time": 152.0559,
        "color": "rgb(239,68,68,1.0)",
        "deleted": false,
        "remarks": "",
        "editable": true,
        "labelText": "1",
        "validated": true,
        "timeValues": [
          153.64148
        ],
        "descriptors": [
          "226",
          "206",
          "227"
        ],
        "markerDegree": 1,
        "activeColumns": 1,
        "pointerHeight": 20,
        "itemsInAfterCol": 3,
        "itemsInBeforeCol": 0,
        "descriptorAfterActive": true,
        "descriptorBeforeActive": false
      },
      {
        "id": "peaks.point.14",
        "time": 164.2463,
        "color": "rgb(59,130,246,1.0)",
        "deleted": false,
        "remarks": "",
        "editable": true,
        "labelText": "2",
        "validated": true,
        "timeValues": [
          166.025684
        ],
        "descriptors": [
          "225",
          "226",
          "207"
        ],
        "markerDegree": 2,
        "activeColumns": 1,
        "pointerHeight": 14,
        "itemsInAfterCol": 3,
        "itemsInBeforeCol": 0,
        "descriptorAfterActive": true,
        "descriptorBeforeActive": false
      },
      {
        "id": "peaks.point.15",
        "time": 168.902,
        "color": "rgb(239,68,68,1.0)",
        "deleted": false,
        "remarks": "",
        "editable": true,
        "labelText": "1",
        "validated": true,
        "timeValues": [
          170.017619
        ],
        "descriptors": [
          "206",
          "226",
          "227"
        ],
        "markerDegree": 1,
        "activeColumns": 1,
        "pointerHeight": 20,
        "itemsInAfterCol": 3,
        "itemsInBeforeCol": 0,
        "descriptorAfterActive": true,
        "descriptorBeforeActive": false
      },
      {
        "id": "peaks.point.16",
        "time": 184.8889,
        "color": "rgb(59,130,246,1.0)",
        "deleted": false,
        "remarks": "",
        "editable": true,
        "labelText": "2",
        "validated": true,
        "timeValues": [
          187.585649
        ],
        "descriptors": [
          "207",
          "226"
        ],
        "markerDegree": 2,
        "activeColumns": 1,
        "pointerHeight": 14,
        "itemsInAfterCol": 2,
        "itemsInBeforeCol": 0,
        "descriptorAfterActive": true,
        "descriptorBeforeActive": false
      },
      {
        "id": "peaks.point.17",
        "time": 195.3611,
        "color": "rgba(29,78,216,1.0)",
        "deleted": false,
        "remarks": "",
        "editable": true,
        "labelText": "2",
        "validated": true,
        "timeValues": [
          197.008837
        ],
        "descriptors": [
          "226",
          "225",
          "207"
        ],
        "markerDegree": 2,
        "activeColumns": 1,
        "pointerHeight": 14,
        "itemsInAfterCol": 3,
        "itemsInBeforeCol": 0,
        "descriptorAfterActive": true,
        "descriptorBeforeActive": false
      },
      {
        "id": "peaks.point.18",
        "time": 221.6809,
        "color": "rgba(4,120,87,1.0)",
        "deleted": false,
        "remarks": "",
        "editable": true,
        "labelText": "3",
        "validated": true,
        "timeValues": [
          222.649565
        ],
        "descriptors": [
          "225"
        ],
        "markerDegree": 3,
        "activeColumns": 1,
        "pointerHeight": 10,
        "itemsInAfterCol": 1,
        "itemsInBeforeCol": 0,
        "descriptorAfterActive": true,
        "descriptorBeforeActive": false
      },
      {
        "id": "peaks.point.19",
        "time": 237.6562,
        "color": "rgba(34,197,94,1.0)",
        "deleted": false,
        "remarks": "",
        "editable": true,
        "labelText": "3",
        "validated": false,
        "timeValues": [
          236.801577
        ],
        "descriptors": [],
        "markerDegree": 3,
        "activeColumns": 0,
        "pointerHeight": 10,
        "itemsInAfterCol": 0,
        "itemsInBeforeCol": 0,
        "descriptorAfterActive": false,
        "descriptorBeforeActive": false
      },
      {
        "id": "peaks.point.20",
        "time": 255.582,
        "color": "rgba(34,197,94,1.0)",
        "deleted": false,
        "remarks": "",
        "editable": true,
        "labelText": "3",
        "validated": false,
        "timeValues": [
          256.745604
        ],
        "descriptors": [],
        "markerDegree": 3,
        "activeColumns": 0,
        "pointerHeight": 10,
        "itemsInAfterCol": 0,
        "itemsInBeforeCol": 0,
        "descriptorAfterActive": false,
        "descriptorBeforeActive": false
      },
      {
        "id": "peaks.point.21",
        "time": 269.8739,
        "color": "rgb(239,68,68,1.0)",
        "deleted": false,
        "remarks": "",
        "editable": true,
        "labelText": "1",
        "validated": true,
        "timeValues": [
          271.840888
        ],
        "descriptors": [
          "222",
          "206"
        ],
        "markerDegree": 1,
        "activeColumns": 1,
        "pointerHeight": 20,
        "itemsInAfterCol": 2,
        "itemsInBeforeCol": 0,
        "descriptorAfterActive": true,
        "descriptorBeforeActive": false
      },
      {
        "id": "peaks.point.22",
        "time": 284.9321,
        "color": "rgb(59,130,246,1.0)",
        "deleted": false,
        "remarks": "",
        "editable": true,
        "labelText": "2",
        "validated": true,
        "timeValues": [
          288.136945
        ],
        "descriptors": [
          "222",
          "225",
          "226"
        ],
        "markerDegree": 2,
        "activeColumns": 1,
        "pointerHeight": 14,
        "itemsInAfterCol": 3,
        "itemsInBeforeCol": 0,
        "descriptorAfterActive": true,
        "descriptorBeforeActive": false
      },
      {
        "id": "peaks.point.23",
        "time": 306.039,
        "color": "rgb(239,68,68,1.0)",
        "deleted": false,
        "remarks": "",
        "editable": true,
        "labelText": "1",
        "validated": true,
        "timeValues": [
          310.521776
        ],
        "descriptors": [
          "224",
          "206"
        ],
        "markerDegree": 1,
        "activeColumns": 1,
        "pointerHeight": 20,
        "itemsInAfterCol": 2,
        "itemsInBeforeCol": 0,
        "descriptorAfterActive": true,
        "descriptorBeforeActive": false
      },
      {
        "id": "peaks.point.24",
        "time": 322.89226,
        "color": "rgb(239,68,68,1.0)",
        "deleted": false,
        "remarks": "",
        "editable": true,
        "labelText": "1",
        "validated": true,
        "timeValues": [
          322.89226
        ],
        "descriptors": [
          "222",
          "227",
          "209"
        ],
        "markerDegree": 1,
        "activeColumns": 1,
        "pointerHeight": 20,
        "itemsInAfterCol": 3,
        "itemsInBeforeCol": 0,
        "descriptorAfterActive": true,
        "descriptorBeforeActive": false
      },
      {
        "id": "peaks.point.25",
        "time": 339.4757,
        "color": "rgba(34,197,94,1.0)",
        "deleted": false,
        "remarks": "",
        "editable": true,
        "labelText": "3",
        "validated": false,
        "timeValues": [
          347.401639
        ],
        "descriptors": [],
        "markerDegree": 3,
        "activeColumns": 0,
        "pointerHeight": 10,
        "itemsInAfterCol": 0,
        "itemsInBeforeCol": 0,
        "descriptorAfterActive": false,
        "descriptorBeforeActive": false
      },
      {
        "id": "peaks.point.26",
        "time": 360.0834,
        "color": "rgb(59,130,246,1.0)",
        "deleted": false,
        "remarks": "",
        "editable": true,
        "labelText": "2",
        "validated": true,
        "timeValues": [
          363.280799
        ],
        "descriptors": [
          "206"
        ],
        "markerDegree": 2,
        "activeColumns": 1,
        "pointerHeight": 14,
        "itemsInAfterCol": 1,
        "itemsInBeforeCol": 0,
        "descriptorAfterActive": true,
        "descriptorBeforeActive": false
      },
      {
        "id": "peaks.point.27",
        "time": 381.5735,
        "color": "rgb(59,130,246,1.0)",
        "deleted": false,
        "remarks": "",
        "editable": true,
        "labelText": "2",
        "validated": true,
        "timeValues": [
          381.193661
        ],
        "descriptors": [
          "209",
          "208"
        ],
        "markerDegree": 2,
        "activeColumns": 1,
        "pointerHeight": 14,
        "itemsInAfterCol": 2,
        "itemsInBeforeCol": 0,
        "descriptorAfterActive": true,
        "descriptorBeforeActive": false
      },
      {
        "id": "peaks.point.28",
        "time": 397.5721,
        "color": "rgba(185,28,28,1.0)",
        "deleted": false,
        "remarks": "",
        "editable": true,
        "labelText": "1",
        "validated": true,
        "timeValues": [
          397.969784
        ],
        "descriptors": [
          "222",
          "227",
          "226"
        ],
        "markerDegree": 1,
        "activeColumns": 1,
        "pointerHeight": 20,
        "itemsInAfterCol": 3,
        "itemsInBeforeCol": 0,
        "descriptorAfterActive": true,
        "descriptorBeforeActive": false
      },
      {
        "id": "peaks.point.29",
        "time": 412.3167,
        "color": "rgb(239,68,68,1.0)",
        "deleted": false,
        "remarks": "",
        "editable": true,
        "labelText": "1",
        "validated": true,
        "timeValues": [
          415.673701
        ],
        "descriptors": [
          "206",
          "224",
          "222"
        ],
        "markerDegree": 1,
        "activeColumns": 1,
        "pointerHeight": 20,
        "itemsInAfterCol": 3,
        "itemsInBeforeCol": 0,
        "descriptorAfterActive": true,
        "descriptorBeforeActive": false
      },
      {
        "id": "peaks.point.30",
        "time": 435.8153,
        "color": "rgb(59,130,246,1.0)",
        "deleted": false,
        "remarks": "",
        "editable": true,
        "labelText": "2",
        "validated": true,
        "timeValues": [
          436.048845
        ],
        "descriptors": [
          "212",
          "206",
          "224"
        ],
        "markerDegree": 2,
        "activeColumns": 1,
        "pointerHeight": 14,
        "itemsInAfterCol": 3,
        "itemsInBeforeCol": 0,
        "descriptorAfterActive": true,
        "descriptorBeforeActive": false
      },
      {
        "id": "peaks.point.31",
        "time": 450.2581,
        "color": "rgb(59,130,246,1.0)",
        "deleted": false,
        "remarks": "",
        "editable": true,
        "labelText": "2",
        "validated": true,
        "timeValues": [
          453.377365
        ],
        "descriptors": [
          "224",
          "222"
        ],
        "markerDegree": 2,
        "activeColumns": 1,
        "pointerHeight": 14,
        "itemsInAfterCol": 2,
        "itemsInBeforeCol": 0,
        "descriptorAfterActive": true,
        "descriptorBeforeActive": false
      },
      {
        "id": "peaks.point.32",
        "time": 477.6112,
        "color": "rgb(59,130,246,1.0)",
        "deleted": false,
        "remarks": "",
        "editable": true,
        "labelText": "2",
        "validated": true,
        "timeValues": [
          476.569632
        ],
        "descriptors": [
          "224"
        ],
        "markerDegree": 2,
        "activeColumns": 1,
        "pointerHeight": 14,
        "itemsInAfterCol": 1,
        "itemsInBeforeCol": 0,
        "descriptorAfterActive": true,
        "descriptorBeforeActive": false
      },
      {
        "id": "peaks.point.33",
        "time": 489.5927,
        "color": "rgb(59,130,246,1.0)",
        "deleted": false,
        "remarks": "",
        "editable": true,
        "labelText": "2",
        "validated": true,
        "timeValues": [
          490.437126
        ],
        "descriptors": [
          "212",
          "225"
        ],
        "markerDegree": 2,
        "activeColumns": 1,
        "pointerHeight": 14,
        "itemsInAfterCol": 2,
        "itemsInBeforeCol": 0,
        "descriptorAfterActive": true,
        "descriptorBeforeActive": false
      },
      {
        "id": "peaks.point.34",
        "time": 513.4396,
        "color": "rgb(239,68,68,1.0)",
        "deleted": false,
        "remarks": "",
        "editable": true,
        "labelText": "1",
        "validated": true,
        "timeValues": [
          514.352968
        ],
        "descriptors": [
          "227"
        ],
        "markerDegree": 1,
        "activeColumns": 1,
        "pointerHeight": 20,
        "itemsInAfterCol": 1,
        "itemsInBeforeCol": 0,
        "descriptorAfterActive": true,
        "descriptorBeforeActive": false
      },
      {
        "id": "peaks.point.35",
        "time": 528.7764,
        "color": "rgba(34,197,94,1.0)",
        "deleted": false,
        "remarks": "",
        "editable": true,
        "labelText": "3",
        "validated": false,
        "timeValues": [
          530.561563
        ],
        "descriptors": [],
        "markerDegree": 3,
        "activeColumns": 0,
        "pointerHeight": 10,
        "itemsInAfterCol": 0,
        "itemsInBeforeCol": 0,
        "descriptorAfterActive": false,
        "descriptorBeforeActive": false
      },
      {
        "id": "peaks.point.36",
        "time": 564.129676,
        "color": "rgba(34,197,94,1.0)",
        "deleted": true,
        "remarks": "",
        "editable": true,
        "draggable": false,
        "labelText": "3",
        "validated": false,
        "timeValues": [
          564.129676
        ],
        "descriptors": [],
        "markerDegree": 3,
        "activeColumns": 0,
        "pointerHeight": 10,
        "itemsInAfterCol": 0,
        "itemsInBeforeCol": 0,
        "descriptorAfterActive": false,
        "descriptorBeforeActive": false
      },
      {
        "id": "peaks.point.37",
        "time": 4.179591,
        "color": "rgba(29,78,216,1.0)",
        "deleted": false,
        "remarks": "",
        "editable": true,
        "labelText": "2",
        "validated": true,
        "descriptors": [
          "202"
        ],
        "markerDegree": 2,
        "activeColumns": 1,
        "pointerHeight": 14,
        "itemsInAfterCol": 1,
        "itemsInBeforeCol": 0,
        "descriptorAfterActive": true,
        "descriptorBeforeActive": false
      },
      {
        "id": "peaks.point.38",
        "time": 32.774965,
        "color": "rgba(4,120,87,1.0)",
        "deleted": false,
        "remarks": "",
        "editable": true,
        "labelText": "3",
        "validated": true,
        "descriptors": [
          "220"
        ],
        "markerDegree": 3,
        "activeColumns": 1,
        "pointerHeight": 10,
        "itemsInAfterCol": 1,
        "itemsInBeforeCol": 0,
        "descriptorAfterActive": true,
        "descriptorBeforeActive": false
      },
      {
        "id": "peaks.point.39",
        "time": 190.078548,
        "color": "rgba(29,78,216,1.0)",
        "deleted": false,
        "remarks": "",
        "editable": true,
        "labelText": "2",
        "validated": true,
        "descriptors": [
          "206",
          "226"
        ],
        "markerDegree": 2,
        "activeColumns": 1,
        "pointerHeight": 14,
        "itemsInAfterCol": 2,
        "itemsInBeforeCol": 0,
        "descriptorAfterActive": true,
        "descriptorBeforeActive": false
      },
      {
        "id": "peaks.point.40",
        "time": 198.182312,
        "color": "rgba(29,78,216,1.0)",
        "deleted": false,
        "remarks": "",
        "editable": true,
        "labelText": "2",
        "validated": true,
        "descriptors": [
          "206",
          "226"
        ],
        "markerDegree": 2,
        "activeColumns": 1,
        "pointerHeight": 14,
        "itemsInAfterCol": 2,
        "itemsInBeforeCol": 0,
        "descriptorAfterActive": true,
        "descriptorBeforeActive": false
      },
      {
        "id": "peaks.point.41",
        "time": 244.239092,
        "color": "rgba(29,78,216,1.0)",
        "deleted": false,
        "remarks": "",
        "editable": true,
        "labelText": "2",
        "validated": true,
        "descriptors": [
          "224",
          "222"
        ],
        "markerDegree": 2,
        "activeColumns": 1,
        "pointerHeight": 14,
        "itemsInAfterCol": 2,
        "itemsInBeforeCol": 0,
        "descriptorAfterActive": true,
        "descriptorBeforeActive": false
      },
      {
        "id": "peaks.point.42",
        "time": 262.664126,
        "color": "rgba(29,78,216,1.0)",
        "deleted": false,
        "remarks": "",
        "editable": true,
        "labelText": "2",
        "validated": true,
        "descriptors": [
          "224"
        ],
        "markerDegree": 2,
        "activeColumns": 1,
        "pointerHeight": 14,
        "itemsInAfterCol": 1,
        "itemsInBeforeCol": 0,
        "descriptorAfterActive": true,
        "descriptorBeforeActive": false
      },
      {
        "id": "peaks.point.43",
        "time": 422.092335,
        "color": "rgba(29,78,216,1.0)",
        "deleted": false,
        "remarks": "",
        "editable": true,
        "labelText": "2",
        "validated": true,
        "descriptors": [
          "224",
          "222"
        ],
        "markerDegree": 2,
        "activeColumns": 1,
        "pointerHeight": 14,
        "itemsInAfterCol": 2,
        "itemsInBeforeCol": 0,
        "descriptorAfterActive": true,
        "descriptorBeforeActive": false
      },
      {
        "id": "peaks.point.44",
        "time": 462.239637,
        "color": "rgba(185,28,28,1.0)",
        "deleted": false,
        "remarks": "",
        "editable": true,
        "labelText": "1",
        "validated": true,
        "descriptors": [
          "206",
          "222",
          "224"
        ],
        "markerDegree": 1,
        "activeColumns": 1,
        "pointerHeight": 20,
        "itemsInAfterCol": 3,
        "itemsInBeforeCol": 0,
        "descriptorAfterActive": true,
        "descriptorBeforeActive": false
      },
      {
        "id": "peaks.point.45",
        "time": 539.747845,
        "color": "rgba(29,78,216,1.0)",
        "deleted": false,
        "remarks": "",
        "editable": true,
        "labelText": "2",
        "validated": true,
        "descriptors": [
          "220",
          "226"
        ],
        "markerDegree": 2,
        "activeColumns": 1,
        "pointerHeight": 14,
        "itemsInAfterCol": 2,
        "itemsInBeforeCol": 0,
        "descriptorAfterActive": true,
        "descriptorBeforeActive": false
      }
    ],
    "participant_data": {
      "id": 50,
      "expert": true,
      "gender": "male",
      "birthDay": "1993-02-19",
      "trainingFocus": [
        "theoretical_composition_music_theory_musicology"
      ],
      "trainingLevel": "university_conservatory",
      "listeningExperience": "long_term_experience"
    }
  }
}