{
  "results": {
    "fileId": 3,
    "fileData": {
      "id": 3,
      "title": "Task 4",
      "mediaId": 61,
      "analysed": false,
      "mediaUrl": "https://points-of-discontinuity-objects.s3.eu-central-1.amazonaws.com/Harrison_Klang_excerpt_68f61f6466.mp3",
      "webAudio": {},
      "mediaName": "Harrison_Klang_excerpt.mp3",
      "description": "<p><span style=\"color:black;\">Harrison, Jonty, Klang Excerpt</span></p>",
      "clickSoundUrl": "https://points-of-discontinuity-objects.s3.eu-central-1.amazonaws.com/click_druminfected_1_fba408ea30.mp3",
      "offsetEndMarker": {
        "id": 9999,
        "time": 112.8606,
        "type": 1,
        "color": "#808080",
        "degree": 1
      },
      "offsetStartMarker": {
        "id": 0,
        "time": 2,
        "type": 1,
        "color": "#808080",
        "degree": 1
      },
      "totalAmountOfCues": 15,
      "mediaAlternativeText": ""
    },
    "combinedCues": {
      "0": {
        "id": "peaks.point.1",
        "time": 2,
        "color": "#808080",
        "deleted": false,
        "remarks": "Offset Start Time Marker",
        "editable": false,
        "labelText": "  ",
        "validated": true,
        "timeValues": [
          2
        ],
        "descriptors": [],
        "markerDegree": 1,
        "pointerHeight": 20,
        "descriptorAfterActive": false,
        "descriptorBeforeActive": false
      },
      "1": {
        "id": "peaks.point.9999",
        "time": 112.8606,
        "color": "#808080",
        "deleted": false,
        "remarks": "Offset End Time Marker",
        "editable": false,
        "labelText": "  ",
        "validated": true,
        "timeValues": [
          112.8606
        ],
        "descriptors": [],
        "markerDegree": 1,
        "pointerHeight": 20,
        "descriptorAfterActive": false,
        "descriptorBeforeActive": false
      },
      "2": {
        "id": "peaks.point.3",
        "time": 5.296404,
        "color": "rgb(59,130,246,1.0)",
        "deleted": false,
        "remarks": "",
        "editable": true,
        "labelText": "2",
        "validated": true,
        "timeValues": [
          5.296404
        ],
        "descriptors": [
          "114",
          "214"
        ],
        "markerDegree": 2,
        "activeColumns": 2,
        "pointerHeight": 14,
        "itemsInAfterCol": 1,
        "itemsInBeforeCol": 1,
        "descriptorAfterActive": true,
        "descriptorBeforeActive": true
      },
      "3": {
        "id": "peaks.point.4",
        "time": 9.8349,
        "color": "rgb(59,130,246,1.0)",
        "deleted": false,
        "remarks": "",
        "editable": true,
        "labelText": "2",
        "validated": true,
        "timeValues": [
          10.765199
        ],
        "descriptors": [
          "125",
          "126",
          "127"
        ],
        "markerDegree": 2,
        "activeColumns": 1,
        "pointerHeight": 14,
        "itemsInAfterCol": 0,
        "itemsInBeforeCol": 3,
        "descriptorAfterActive": false,
        "descriptorBeforeActive": true
      },
      "4": {
        "id": "peaks.point.5",
        "time": 32.9128,
        "color": "rgba(34,197,94,1.0)",
        "deleted": false,
        "remarks": "",
        "editable": true,
        "labelText": "3",
        "validated": true,
        "timeValues": [
          53.184057
        ],
        "descriptors": [
          "120",
          "220"
        ],
        "markerDegree": 3,
        "activeColumns": 2,
        "pointerHeight": 10,
        "itemsInAfterCol": 1,
        "itemsInBeforeCol": 1,
        "descriptorAfterActive": true,
        "descriptorBeforeActive": true
      },
      "5": {
        "id": "peaks.point.6",
        "time": 59.4961,
        "color": "rgb(59,130,246,1.0)",
        "deleted": false,
        "remarks": "",
        "editable": true,
        "labelText": "2",
        "validated": true,
        "timeValues": [
          61.370759
        ],
        "descriptors": [
          "206",
          "125",
          "225"
        ],
        "markerDegree": 2,
        "activeColumns": 2,
        "pointerHeight": 14,
        "itemsInAfterCol": 2,
        "itemsInBeforeCol": 1,
        "descriptorAfterActive": true,
        "descriptorBeforeActive": true
      },
      "6": {
        "id": "peaks.point.7",
        "time": 68.1625,
        "color": "rgb(239,68,68,1.0)",
        "deleted": false,
        "remarks": "",
        "editable": true,
        "labelText": "1",
        "validated": true,
        "timeValues": [
          68.618731
        ],
        "descriptors": [
          "106"
        ],
        "markerDegree": 1,
        "activeColumns": 1,
        "pointerHeight": 20,
        "itemsInAfterCol": 0,
        "itemsInBeforeCol": 1,
        "descriptorAfterActive": false,
        "descriptorBeforeActive": true
      },
      "7": {
        "id": "peaks.point.8",
        "time": 76.6341,
        "color": "rgb(239,68,68,1.0)",
        "deleted": false,
        "remarks": "",
        "editable": true,
        "labelText": "1",
        "validated": true,
        "timeValues": [
          77.470381
        ],
        "descriptors": [
          "106",
          "125",
          "126"
        ],
        "markerDegree": 1,
        "activeColumns": 1,
        "pointerHeight": 20,
        "itemsInAfterCol": 0,
        "itemsInBeforeCol": 3,
        "descriptorAfterActive": false,
        "descriptorBeforeActive": true
      },
      "8": {
        "id": "peaks.point.9",
        "time": 92.5062,
        "color": "rgb(239,68,68,1.0)",
        "deleted": false,
        "remarks": "",
        "editable": true,
        "labelText": "1",
        "validated": true,
        "timeValues": [
          97.389932
        ],
        "descriptors": [
          "103",
          "207",
          "208"
        ],
        "markerDegree": 1,
        "activeColumns": 2,
        "pointerHeight": 20,
        "itemsInAfterCol": 2,
        "itemsInBeforeCol": 1,
        "descriptorAfterActive": true,
        "descriptorBeforeActive": true
      },
      "9": {
        "id": "peaks.point.10",
        "time": 105.334653,
        "color": "rgba(29,78,216,1.0)",
        "deleted": false,
        "remarks": "",
        "editable": true,
        "labelText": "2",
        "validated": true,
        "descriptors": [
          "119",
          "209"
        ],
        "markerDegree": 2,
        "activeColumns": 2,
        "pointerHeight": 14,
        "itemsInAfterCol": 1,
        "itemsInBeforeCol": 1,
        "descriptorAfterActive": true,
        "descriptorBeforeActive": true
      }
    },
    "cuesOfStepOne": [
      {
        "id": "peaks.point.1",
        "time": 2,
        "color": "#808080",
        "deleted": false,
        "remarks": "Offset Start Time Marker",
        "editable": false,
        "labelText": "  ",
        "validated": true,
        "timeValues": [
          2
        ],
        "descriptors": [],
        "markerDegree": 1,
        "pointerHeight": 20,
        "descriptorAfterActive": false,
        "descriptorBeforeActive": false
      },
      {
        "id": "peaks.point.9999",
        "time": 112.8606,
        "color": "#808080",
        "deleted": false,
        "remarks": "Offset End Time Marker",
        "editable": false,
        "labelText": "  ",
        "validated": true,
        "timeValues": [
          112.8606
        ],
        "descriptors": [],
        "markerDegree": 1,
        "pointerHeight": 20,
        "descriptorAfterActive": false,
        "descriptorBeforeActive": false
      },
      {
        "id": "peaks.point.3",
        "time": 5.296404,
        "color": "rgb(59,130,246,1.0)",
        "deleted": false,
        "remarks": "",
        "editable": true,
        "labelText": "2",
        "validated": true,
        "timeValues": [
          5.296404
        ],
        "descriptors": [
          "113",
          "213"
        ],
        "markerDegree": 2,
        "activeColumns": 2,
        "pointerHeight": 14,
        "itemsInAfterCol": 1,
        "itemsInBeforeCol": 1,
        "descriptorAfterActive": true,
        "descriptorBeforeActive": true
      },
      {
        "id": "peaks.point.4",
        "time": 9.8349,
        "color": "rgb(59,130,246,1.0)",
        "deleted": false,
        "remarks": "",
        "editable": true,
        "labelText": "2",
        "validated": true,
        "timeValues": [
          10.765199
        ],
        "descriptors": [
          "124",
          "125",
          "126"
        ],
        "markerDegree": 2,
        "activeColumns": 1,
        "pointerHeight": 14,
        "itemsInAfterCol": 0,
        "itemsInBeforeCol": 3,
        "descriptorAfterActive": false,
        "descriptorBeforeActive": true
      },
      {
        "id": "peaks.point.5",
        "time": 32.9128,
        "color": "rgba(34,197,94,1.0)",
        "deleted": false,
        "remarks": "",
        "editable": true,
        "labelText": "3",
        "validated": true,
        "timeValues": [
          53.184057
        ],
        "descriptors": [
          "119",
          "219"
        ],
        "markerDegree": 3,
        "activeColumns": 2,
        "pointerHeight": 10,
        "itemsInAfterCol": 1,
        "itemsInBeforeCol": 1,
        "descriptorAfterActive": true,
        "descriptorBeforeActive": true
      },
      {
        "id": "peaks.point.6",
        "time": 59.4961,
        "color": "rgb(59,130,246,1.0)",
        "deleted": false,
        "remarks": "",
        "editable": true,
        "labelText": "2",
        "validated": true,
        "timeValues": [
          61.370759
        ],
        "descriptors": [
          "205",
          "124",
          "224"
        ],
        "markerDegree": 2,
        "activeColumns": 2,
        "pointerHeight": 14,
        "itemsInAfterCol": 2,
        "itemsInBeforeCol": 1,
        "descriptorAfterActive": true,
        "descriptorBeforeActive": true
      },
      {
        "id": "peaks.point.7",
        "time": 68.1625,
        "color": "rgb(239,68,68,1.0)",
        "deleted": false,
        "remarks": "",
        "editable": true,
        "labelText": "1",
        "validated": true,
        "timeValues": [
          68.618731
        ],
        "descriptors": [
          "105"
        ],
        "markerDegree": 1,
        "activeColumns": 1,
        "pointerHeight": 20,
        "itemsInAfterCol": 0,
        "itemsInBeforeCol": 1,
        "descriptorAfterActive": false,
        "descriptorBeforeActive": true
      },
      {
        "id": "peaks.point.8",
        "time": 76.6341,
        "color": "rgb(239,68,68,1.0)",
        "deleted": false,
        "remarks": "",
        "editable": true,
        "labelText": "1",
        "validated": true,
        "timeValues": [
          77.470381
        ],
        "descriptors": [
          "105",
          "124",
          "125"
        ],
        "markerDegree": 1,
        "activeColumns": 1,
        "pointerHeight": 20,
        "itemsInAfterCol": 0,
        "itemsInBeforeCol": 3,
        "descriptorAfterActive": false,
        "descriptorBeforeActive": true
      },
      {
        "id": "peaks.point.9",
        "time": 92.5062,
        "color": "rgb(239,68,68,1.0)",
        "deleted": false,
        "remarks": "",
        "editable": true,
        "labelText": "1",
        "validated": true,
        "timeValues": [
          97.389932
        ],
        "descriptors": [
          "102",
          "206",
          "207"
        ],
        "markerDegree": 1,
        "activeColumns": 2,
        "pointerHeight": 20,
        "itemsInAfterCol": 2,
        "itemsInBeforeCol": 1,
        "descriptorAfterActive": true,
        "descriptorBeforeActive": true
      }
    ],
    "cuesOfStepTwo": [
      {
        "id": "peaks.point.1",
        "time": 2,
        "color": "#808080",
        "deleted": false,
        "remarks": "Offset Start Time Marker",
        "editable": false,
        "labelText": "  ",
        "validated": true,
        "timeValues": [
          2
        ],
        "descriptors": [],
        "markerDegree": 1,
        "pointerHeight": 20,
        "descriptorAfterActive": false,
        "descriptorBeforeActive": false
      },
      {
        "id": "peaks.point.9999",
        "time": 112.8606,
        "color": "#808080",
        "deleted": false,
        "remarks": "Offset End Time Marker",
        "editable": false,
        "labelText": "  ",
        "validated": true,
        "timeValues": [
          112.8606
        ],
        "descriptors": [],
        "markerDegree": 1,
        "pointerHeight": 20,
        "descriptorAfterActive": false,
        "descriptorBeforeActive": false
      },
      {
        "id": "peaks.point.3",
        "time": 5.296404,
        "color": "rgb(59,130,246,1.0)",
        "deleted": false,
        "remarks": "",
        "editable": true,
        "labelText": "2",
        "validated": true,
        "timeValues": [
          5.296404
        ],
        "descriptors": [
          "114",
          "214"
        ],
        "markerDegree": 2,
        "activeColumns": 2,
        "pointerHeight": 14,
        "itemsInAfterCol": 1,
        "itemsInBeforeCol": 1,
        "descriptorAfterActive": true,
        "descriptorBeforeActive": true
      },
      {
        "id": "peaks.point.4",
        "time": 9.8349,
        "color": "rgb(59,130,246,1.0)",
        "deleted": false,
        "remarks": "",
        "editable": true,
        "labelText": "2",
        "validated": true,
        "timeValues": [
          10.765199
        ],
        "descriptors": [
          "125",
          "126",
          "127"
        ],
        "markerDegree": 2,
        "activeColumns": 1,
        "pointerHeight": 14,
        "itemsInAfterCol": 0,
        "itemsInBeforeCol": 3,
        "descriptorAfterActive": false,
        "descriptorBeforeActive": true
      },
      {
        "id": "peaks.point.5",
        "time": 32.9128,
        "color": "rgba(34,197,94,1.0)",
        "deleted": false,
        "remarks": "",
        "editable": true,
        "labelText": "3",
        "validated": true,
        "timeValues": [
          53.184057
        ],
        "descriptors": [
          "120",
          "220"
        ],
        "markerDegree": 3,
        "activeColumns": 2,
        "pointerHeight": 10,
        "itemsInAfterCol": 1,
        "itemsInBeforeCol": 1,
        "descriptorAfterActive": true,
        "descriptorBeforeActive": true
      },
      {
        "id": "peaks.point.6",
        "time": 59.4961,
        "color": "rgb(59,130,246,1.0)",
        "deleted": false,
        "remarks": "",
        "editable": true,
        "labelText": "2",
        "validated": true,
        "timeValues": [
          61.370759
        ],
        "descriptors": [
          "206",
          "125",
          "225"
        ],
        "markerDegree": 2,
        "activeColumns": 2,
        "pointerHeight": 14,
        "itemsInAfterCol": 2,
        "itemsInBeforeCol": 1,
        "descriptorAfterActive": true,
        "descriptorBeforeActive": true
      },
      {
        "id": "peaks.point.7",
        "time": 68.1625,
        "color": "rgb(239,68,68,1.0)",
        "deleted": false,
        "remarks": "",
        "editable": true,
        "labelText": "1",
        "validated": true,
        "timeValues": [
          68.618731
        ],
        "descriptors": [
          "106"
        ],
        "markerDegree": 1,
        "activeColumns": 1,
        "pointerHeight": 20,
        "itemsInAfterCol": 0,
        "itemsInBeforeCol": 1,
        "descriptorAfterActive": false,
        "descriptorBeforeActive": true
      },
      {
        "id": "peaks.point.8",
        "time": 76.6341,
        "color": "rgb(239,68,68,1.0)",
        "deleted": false,
        "remarks": "",
        "editable": true,
        "labelText": "1",
        "validated": true,
        "timeValues": [
          77.470381
        ],
        "descriptors": [
          "106",
          "125",
          "126"
        ],
        "markerDegree": 1,
        "activeColumns": 1,
        "pointerHeight": 20,
        "itemsInAfterCol": 0,
        "itemsInBeforeCol": 3,
        "descriptorAfterActive": false,
        "descriptorBeforeActive": true
      },
      {
        "id": "peaks.point.9",
        "time": 92.5062,
        "color": "rgb(239,68,68,1.0)",
        "deleted": false,
        "remarks": "",
        "editable": true,
        "labelText": "1",
        "validated": true,
        "timeValues": [
          97.389932
        ],
        "descriptors": [
          "103",
          "207",
          "208"
        ],
        "markerDegree": 1,
        "activeColumns": 2,
        "pointerHeight": 20,
        "itemsInAfterCol": 2,
        "itemsInBeforeCol": 1,
        "descriptorAfterActive": true,
        "descriptorBeforeActive": true
      },
      {
        "id": "peaks.point.10",
        "time": 105.334653,
        "color": "rgba(29,78,216,1.0)",
        "deleted": false,
        "remarks": "",
        "editable": true,
        "labelText": "2",
        "validated": true,
        "descriptors": [
          "119",
          "209"
        ],
        "markerDegree": 2,
        "activeColumns": 2,
        "pointerHeight": 14,
        "itemsInAfterCol": 1,
        "itemsInBeforeCol": 1,
        "descriptorAfterActive": true,
        "descriptorBeforeActive": true
      }
    ],
    "participant_data": {
      "id": 49,
      "expert": false,
      "gender": "male",
      "birthDay": "1997-11-04",
      "trainingLevel": "none",
      "listeningExperience": "no_experience"
    }
  }
}