{
  "id": 108,
  "participant_id": null,
  "result": null,
  "experiment_group": null,
  "published_at": "2022-02-11T14:13:27.740Z",
  "created_at": "2022-02-11T14:13:27.763Z",
  "updated_at": "2022-02-11T14:13:27.795Z",
  "experiment_participant_id": {},
  "pilot_participant_id": {
    "id": 50,
    "first_name": null,
    "middle_initial": null,
    "last_name": null,
    "display_name": "Ceuster, Diederik de .",
    "date_of_birth": null,
    "email": "diederikmark.deceuster@kuleuven.be",
    "phone": null,
    "salutation": null,
    "jsondata": {
      "person": {
        "email": "diederikmark.deceuster@kuleuven.be",
        "phone": "+00-000-0000000",
        "gender": "male",
        "last_name": "Ceuster",
        "first_name": "Diederik",
        "display_name": "Ceuster, Diederik de .",
        "date_of_birth": "1993-02-19",
        "middle_initial": "de "
      },
      "participant_data": {
        "expert": true,
        "gender": "male",
        "date_of_birth": "1993-02-19"
      },
      "musical_expertise": {
        "expert": true,
        "training_focus": [
          "theoretical_composition_music_theory_musicology"
        ],
        "training_level": "university_conservatory",
        "listening_experience": "long_term_experience"
      }
    },
    "listening_experience": null,
    "expert": true,
    "pilot_experiment_id": null,
    "created_at": "2022-02-11T12:37:34.691Z",
    "updated_at": "2022-02-11T12:39:26.097Z",
    "invite_code_used": "podpil_gr2_dieceu22",
    "pilot_id": 18
  },
  "results": {
    "fileId": 2,
    "fileData": {
      "id": 2,
      "title": "Task 3",
      "mediaId": 49,
      "analysed": false,
      "mediaUrl": "https://points-of-discontinuity-objects.s3.eu-central-1.amazonaws.com/Spahlinger_Furioso_excerpt_667725edc0.mp3",
      "webAudio": {},
      "mediaName": "Spahlinger_Furioso(excerpt).mp3",
      "description": "<p><span style=\"color:black;\">Spahlinger, Mathias, Furioso Excerpt</span></p>",
      "clickSoundUrl": "https://points-of-discontinuity-objects.s3.eu-central-1.amazonaws.com/click_druminfected_1_fba408ea30.mp3",
      "offsetEndMarker": {
        "id": 9999,
        "time": 129.9039,
        "type": 1,
        "color": "#808080",
        "degree": 1
      },
      "offsetStartMarker": {
        "id": 0,
        "time": 0.9994,
        "type": 1,
        "color": "#808080",
        "degree": 1
      },
      "totalAmountOfCues": 14,
      "mediaAlternativeText": ""
    },
    "combinedCues": {
      "0": {
        "id": "peaks.point.1",
        "time": 0.9994,
        "color": "#808080",
        "deleted": false,
        "remarks": "Offset Start Time Marker",
        "editable": false,
        "labelText": "  ",
        "validated": true,
        "timeValues": [
          0.9994
        ],
        "descriptors": [],
        "markerDegree": 1,
        "pointerHeight": 20,
        "descriptorAfterActive": false,
        "descriptorBeforeActive": false
      },
      "1": {
        "id": "peaks.point.9999",
        "time": 129.9039,
        "color": "#808080",
        "deleted": false,
        "remarks": "Offset End Time Marker",
        "editable": false,
        "labelText": "  ",
        "validated": true,
        "timeValues": [
          129.9039
        ],
        "descriptors": [],
        "markerDegree": 1,
        "pointerHeight": 20,
        "descriptorAfterActive": false,
        "descriptorBeforeActive": false
      },
      "2": {
        "id": "peaks.point.3",
        "time": 5.7702,
        "color": "rgba(4,120,87,1.0)",
        "deleted": true,
        "remarks": "",
        "editable": true,
        "draggable": false,
        "labelText": "3",
        "validated": true,
        "timeValues": [
          6.940656
        ],
        "descriptors": [
          "224"
        ],
        "markerDegree": 3,
        "activeColumns": 1,
        "pointerHeight": 10,
        "itemsInAfterCol": 1,
        "itemsInBeforeCol": 0,
        "descriptorAfterActive": true,
        "descriptorBeforeActive": false
      },
      "3": {
        "id": "peaks.point.4",
        "time": 9.6363,
        "color": "rgb(59,130,246,1.0)",
        "deleted": false,
        "remarks": "",
        "editable": true,
        "labelText": "2",
        "validated": true,
        "timeValues": [
          10.373775
        ],
        "descriptors": [
          "223",
          "224",
          "205"
        ],
        "markerDegree": 2,
        "activeColumns": 1,
        "pointerHeight": 14,
        "itemsInAfterCol": 3,
        "itemsInBeforeCol": 0,
        "descriptorAfterActive": true,
        "descriptorBeforeActive": false
      },
      "4": {
        "id": "peaks.point.5",
        "time": 13.723,
        "color": "rgb(239,68,68,1.0)",
        "deleted": true,
        "remarks": "",
        "editable": true,
        "draggable": false,
        "labelText": "1",
        "validated": false,
        "timeValues": [
          13.316561
        ],
        "descriptors": [],
        "markerDegree": 1,
        "activeColumns": 0,
        "pointerHeight": 20,
        "itemsInAfterCol": 0,
        "itemsInBeforeCol": 0,
        "descriptorAfterActive": false,
        "descriptorBeforeActive": false
      },
      "5": {
        "id": "peaks.point.6",
        "time": 19.261,
        "color": "rgba(4,120,87,1.0)",
        "deleted": true,
        "remarks": "",
        "editable": true,
        "draggable": false,
        "labelText": "3",
        "validated": false,
        "timeValues": [
          19.822255
        ],
        "descriptors": [],
        "markerDegree": 3,
        "activeColumns": 0,
        "pointerHeight": 10,
        "itemsInAfterCol": 0,
        "itemsInBeforeCol": 0,
        "descriptorAfterActive": false,
        "descriptorBeforeActive": false
      },
      "6": {
        "id": "peaks.point.7",
        "time": 33.964849,
        "color": "rgb(59,130,246,1.0)",
        "deleted": true,
        "remarks": "",
        "editable": true,
        "draggable": false,
        "labelText": "2",
        "validated": false,
        "timeValues": [
          33.964849
        ],
        "descriptors": [],
        "markerDegree": 2,
        "activeColumns": 0,
        "pointerHeight": 14,
        "itemsInAfterCol": 0,
        "itemsInBeforeCol": 0,
        "descriptorAfterActive": false,
        "descriptorBeforeActive": false
      },
      "7": {
        "id": "peaks.point.8",
        "time": 39.0095,
        "color": "rgb(59,130,246,1.0)",
        "deleted": false,
        "remarks": "",
        "editable": true,
        "labelText": "2",
        "validated": true,
        "timeValues": [
          42.963445
        ],
        "descriptors": [
          "223",
          "221"
        ],
        "markerDegree": 2,
        "activeColumns": 1,
        "pointerHeight": 14,
        "itemsInAfterCol": 2,
        "itemsInBeforeCol": 0,
        "descriptorAfterActive": true,
        "descriptorBeforeActive": false
      },
      "8": {
        "id": "peaks.point.9",
        "time": 46.6953,
        "color": "rgb(239,68,68,1.0)",
        "deleted": false,
        "remarks": "",
        "editable": true,
        "labelText": "1",
        "validated": true,
        "timeValues": [
          47.716506
        ],
        "descriptors": [
          "201",
          "224",
          "221"
        ],
        "markerDegree": 1,
        "activeColumns": 1,
        "pointerHeight": 20,
        "itemsInAfterCol": 3,
        "itemsInBeforeCol": 0,
        "descriptorAfterActive": true,
        "descriptorBeforeActive": false
      },
      "9": {
        "id": "peaks.point.10",
        "time": 52.5932,
        "color": "rgb(59,130,246,1.0)",
        "deleted": true,
        "remarks": "",
        "editable": true,
        "draggable": false,
        "labelText": "2",
        "validated": true,
        "timeValues": [
          53.900714
        ],
        "descriptors": [
          "223"
        ],
        "markerDegree": 2,
        "activeColumns": 1,
        "pointerHeight": 14,
        "itemsInAfterCol": 1,
        "itemsInBeforeCol": 0,
        "descriptorAfterActive": true,
        "descriptorBeforeActive": false
      },
      "10": {
        "id": "peaks.point.11",
        "time": 61.7302,
        "color": "rgb(239,68,68,1.0)",
        "deleted": false,
        "remarks": "",
        "editable": true,
        "labelText": "1",
        "validated": true,
        "timeValues": [
          61.05193
        ],
        "descriptors": [
          "226"
        ],
        "markerDegree": 1,
        "activeColumns": 1,
        "pointerHeight": 20,
        "itemsInAfterCol": 1,
        "itemsInBeforeCol": 0,
        "descriptorAfterActive": true,
        "descriptorBeforeActive": false
      },
      "11": {
        "id": "peaks.point.12",
        "time": 69.2187,
        "color": "rgb(239,68,68,1.0)",
        "deleted": true,
        "remarks": "",
        "editable": true,
        "draggable": false,
        "labelText": "1",
        "validated": true,
        "timeValues": [
          64.613423
        ],
        "descriptors": [
          "200",
          "223"
        ],
        "markerDegree": 1,
        "activeColumns": 1,
        "pointerHeight": 20,
        "itemsInAfterCol": 2,
        "itemsInBeforeCol": 0,
        "descriptorAfterActive": true,
        "descriptorBeforeActive": false
      },
      "12": {
        "id": "peaks.point.13",
        "time": 71.413,
        "color": "rgba(29,78,216,1.0)",
        "deleted": false,
        "remarks": "",
        "editable": true,
        "labelText": "2",
        "validated": true,
        "timeValues": [
          71.892346
        ],
        "descriptors": [
          "212"
        ],
        "markerDegree": 2,
        "activeColumns": 1,
        "pointerHeight": 14,
        "itemsInAfterCol": 1,
        "itemsInBeforeCol": 0,
        "descriptorAfterActive": true,
        "descriptorBeforeActive": false
      },
      "13": {
        "id": "peaks.point.14",
        "time": 78.3209,
        "color": "rgba(4,120,87,1.0)",
        "deleted": false,
        "remarks": "",
        "editable": true,
        "labelText": "3",
        "validated": false,
        "timeValues": [
          79.253326
        ],
        "descriptors": [],
        "markerDegree": 3,
        "activeColumns": 1,
        "pointerHeight": 10,
        "itemsInAfterCol": 0,
        "itemsInBeforeCol": 0,
        "descriptorAfterActive": true,
        "descriptorBeforeActive": false
      },
      "14": {
        "id": "peaks.point.15",
        "time": 84.3233,
        "color": "rgba(4,120,87,1.0)",
        "deleted": false,
        "remarks": "",
        "editable": true,
        "labelText": "3",
        "validated": false,
        "timeValues": [
          85.956172
        ],
        "descriptors": [],
        "markerDegree": 3,
        "activeColumns": 0,
        "pointerHeight": 10,
        "itemsInAfterCol": 0,
        "itemsInBeforeCol": 0,
        "descriptorAfterActive": false,
        "descriptorBeforeActive": false
      },
      "15": {
        "id": "peaks.point.16",
        "time": 89.3272,
        "color": "rgb(59,130,246,1.0)",
        "deleted": false,
        "remarks": "",
        "editable": true,
        "labelText": "2",
        "validated": true,
        "timeValues": [
          90.55343
        ],
        "descriptors": [
          "224"
        ],
        "markerDegree": 2,
        "activeColumns": 1,
        "pointerHeight": 14,
        "itemsInAfterCol": 1,
        "itemsInBeforeCol": 0,
        "descriptorAfterActive": true,
        "descriptorBeforeActive": false
      },
      "16": {
        "id": "peaks.point.17",
        "time": 91.3009,
        "color": "rgb(239,68,68,1.0)",
        "deleted": false,
        "remarks": "",
        "editable": true,
        "labelText": "1",
        "validated": true,
        "timeValues": [
          97.339998
        ],
        "descriptors": [
          "223",
          "224",
          "214"
        ],
        "markerDegree": 1,
        "activeColumns": 1,
        "pointerHeight": 20,
        "itemsInAfterCol": 3,
        "itemsInBeforeCol": 0,
        "descriptorAfterActive": true,
        "descriptorBeforeActive": false
      },
      "17": {
        "id": "peaks.point.18",
        "time": 102.644003,
        "color": "rgba(34,197,94,1.0)",
        "deleted": true,
        "remarks": "",
        "editable": true,
        "draggable": false,
        "labelText": "3",
        "validated": false,
        "timeValues": [
          102.644003
        ],
        "descriptors": [],
        "markerDegree": 3,
        "activeColumns": 0,
        "pointerHeight": 10,
        "itemsInAfterCol": 0,
        "itemsInBeforeCol": 0,
        "descriptorAfterActive": false,
        "descriptorBeforeActive": false
      },
      "18": {
        "id": "peaks.point.19",
        "time": 104.8033,
        "color": "rgba(34,197,94,1.0)",
        "deleted": false,
        "remarks": "",
        "editable": true,
        "labelText": "3",
        "validated": false,
        "timeValues": [
          110.853894
        ],
        "descriptors": [],
        "markerDegree": 3,
        "activeColumns": 0,
        "pointerHeight": 10,
        "itemsInAfterCol": 0,
        "itemsInBeforeCol": 0,
        "descriptorAfterActive": false,
        "descriptorBeforeActive": false
      },
      "19": {
        "id": "peaks.point.20",
        "time": 115.2987,
        "color": "rgb(59,130,246,1.0)",
        "deleted": false,
        "remarks": "",
        "editable": true,
        "labelText": "2",
        "validated": true,
        "timeValues": [
          116.916261
        ],
        "descriptors": [
          "223",
          "224"
        ],
        "markerDegree": 2,
        "activeColumns": 1,
        "pointerHeight": 14,
        "itemsInAfterCol": 2,
        "itemsInBeforeCol": 0,
        "descriptorAfterActive": true,
        "descriptorBeforeActive": false
      },
      "20": {
        "id": "peaks.point.21",
        "time": 119.531986,
        "color": "rgb(239,68,68,1.0)",
        "deleted": true,
        "remarks": "",
        "editable": true,
        "draggable": false,
        "labelText": "1",
        "validated": false,
        "timeValues": [
          119.531986
        ],
        "descriptors": [],
        "markerDegree": 1,
        "activeColumns": 0,
        "pointerHeight": 20,
        "itemsInAfterCol": 0,
        "itemsInBeforeCol": 0,
        "descriptorAfterActive": false,
        "descriptorBeforeActive": false
      },
      "21": {
        "id": "peaks.point.22",
        "time": 123.58928,
        "color": "rgba(34,197,94,1.0)",
        "deleted": true,
        "remarks": "",
        "editable": true,
        "draggable": false,
        "labelText": "3",
        "validated": false,
        "timeValues": [
          123.58928
        ],
        "descriptors": [],
        "markerDegree": 3,
        "activeColumns": 0,
        "pointerHeight": 10,
        "itemsInAfterCol": 0,
        "itemsInBeforeCol": 0,
        "descriptorAfterActive": false,
        "descriptorBeforeActive": false
      },
      "22": {
        "id": "peaks.point.23",
        "time": 123.4721,
        "color": "rgb(59,130,246,1.0)",
        "deleted": false,
        "remarks": "",
        "editable": true,
        "labelText": "2",
        "validated": true,
        "timeValues": [
          125.011927
        ],
        "descriptors": [
          "201",
          "223",
          "221"
        ],
        "markerDegree": 2,
        "activeColumns": 1,
        "pointerHeight": 14,
        "itemsInAfterCol": 3,
        "itemsInBeforeCol": 0,
        "descriptorAfterActive": true,
        "descriptorBeforeActive": false
      },
      "23": {
        "id": "peaks.point.24",
        "time": 1.056507,
        "color": "rgba(185,28,28,1.0)",
        "deleted": true,
        "remarks": "",
        "editable": true,
        "draggable": false,
        "labelText": "1",
        "validated": true,
        "descriptors": [
          "201"
        ],
        "markerDegree": 1,
        "activeColumns": 1,
        "pointerHeight": 20,
        "itemsInAfterCol": 1,
        "itemsInBeforeCol": 0,
        "descriptorAfterActive": true,
        "descriptorBeforeActive": false
      }
    },
    "cuesOfStepOne": [
      {
        "id": "peaks.point.1",
        "time": 0.9994,
        "color": "#808080",
        "deleted": false,
        "remarks": "Offset Start Time Marker",
        "editable": false,
        "labelText": "  ",
        "validated": true,
        "timeValues": [
          0.9994
        ],
        "descriptors": [],
        "markerDegree": 1,
        "pointerHeight": 20,
        "descriptorAfterActive": false,
        "descriptorBeforeActive": false
      },
      {
        "id": "peaks.point.9999",
        "time": 129.9039,
        "color": "#808080",
        "deleted": false,
        "remarks": "Offset End Time Marker",
        "editable": false,
        "labelText": "  ",
        "validated": true,
        "timeValues": [
          129.9039
        ],
        "descriptors": [],
        "markerDegree": 1,
        "pointerHeight": 20,
        "descriptorAfterActive": false,
        "descriptorBeforeActive": false
      },
      {
        "id": "peaks.point.3",
        "time": 5.7702,
        "color": "rgba(4,120,87,1.0)",
        "deleted": true,
        "remarks": "",
        "editable": true,
        "draggable": false,
        "labelText": "3",
        "validated": true,
        "timeValues": [
          6.940656
        ],
        "descriptors": [
          "224"
        ],
        "markerDegree": 3,
        "activeColumns": 1,
        "pointerHeight": 10,
        "itemsInAfterCol": 1,
        "itemsInBeforeCol": 0,
        "descriptorAfterActive": true,
        "descriptorBeforeActive": false
      },
      {
        "id": "peaks.point.4",
        "time": 9.6363,
        "color": "rgb(59,130,246,1.0)",
        "deleted": false,
        "remarks": "",
        "editable": true,
        "labelText": "2",
        "validated": true,
        "timeValues": [
          10.373775
        ],
        "descriptors": [
          "223",
          "224",
          "205"
        ],
        "markerDegree": 2,
        "activeColumns": 1,
        "pointerHeight": 14,
        "itemsInAfterCol": 3,
        "itemsInBeforeCol": 0,
        "descriptorAfterActive": true,
        "descriptorBeforeActive": false
      },
      {
        "id": "peaks.point.5",
        "time": 13.723,
        "color": "rgb(239,68,68,1.0)",
        "deleted": true,
        "remarks": "",
        "editable": true,
        "draggable": false,
        "labelText": "1",
        "validated": false,
        "timeValues": [
          13.316561
        ],
        "descriptors": [],
        "markerDegree": 1,
        "activeColumns": 0,
        "pointerHeight": 20,
        "itemsInAfterCol": 0,
        "itemsInBeforeCol": 0,
        "descriptorAfterActive": false,
        "descriptorBeforeActive": false
      },
      {
        "id": "peaks.point.6",
        "time": 19.261,
        "color": "rgba(4,120,87,1.0)",
        "deleted": true,
        "remarks": "",
        "editable": true,
        "draggable": false,
        "labelText": "3",
        "validated": false,
        "timeValues": [
          19.822255
        ],
        "descriptors": [],
        "markerDegree": 3,
        "activeColumns": 0,
        "pointerHeight": 10,
        "itemsInAfterCol": 0,
        "itemsInBeforeCol": 0,
        "descriptorAfterActive": false,
        "descriptorBeforeActive": false
      },
      {
        "id": "peaks.point.7",
        "time": 33.964849,
        "color": "rgb(59,130,246,1.0)",
        "deleted": true,
        "remarks": "",
        "editable": true,
        "draggable": false,
        "labelText": "2",
        "validated": false,
        "timeValues": [
          33.964849
        ],
        "descriptors": [],
        "markerDegree": 2,
        "activeColumns": 0,
        "pointerHeight": 14,
        "itemsInAfterCol": 0,
        "itemsInBeforeCol": 0,
        "descriptorAfterActive": false,
        "descriptorBeforeActive": false
      },
      {
        "id": "peaks.point.8",
        "time": 39.0095,
        "color": "rgb(59,130,246,1.0)",
        "deleted": false,
        "remarks": "",
        "editable": true,
        "labelText": "2",
        "validated": true,
        "timeValues": [
          42.963445
        ],
        "descriptors": [
          "223",
          "221"
        ],
        "markerDegree": 2,
        "activeColumns": 1,
        "pointerHeight": 14,
        "itemsInAfterCol": 2,
        "itemsInBeforeCol": 0,
        "descriptorAfterActive": true,
        "descriptorBeforeActive": false
      },
      {
        "id": "peaks.point.9",
        "time": 46.6953,
        "color": "rgb(239,68,68,1.0)",
        "deleted": false,
        "remarks": "",
        "editable": true,
        "labelText": "1",
        "validated": true,
        "timeValues": [
          47.716506
        ],
        "descriptors": [
          "201",
          "224",
          "221"
        ],
        "markerDegree": 1,
        "activeColumns": 1,
        "pointerHeight": 20,
        "itemsInAfterCol": 3,
        "itemsInBeforeCol": 0,
        "descriptorAfterActive": true,
        "descriptorBeforeActive": false
      },
      {
        "id": "peaks.point.10",
        "time": 52.5932,
        "color": "rgb(59,130,246,1.0)",
        "deleted": true,
        "remarks": "",
        "editable": true,
        "draggable": false,
        "labelText": "2",
        "validated": true,
        "timeValues": [
          53.900714
        ],
        "descriptors": [
          "223"
        ],
        "markerDegree": 2,
        "activeColumns": 1,
        "pointerHeight": 14,
        "itemsInAfterCol": 1,
        "itemsInBeforeCol": 0,
        "descriptorAfterActive": true,
        "descriptorBeforeActive": false
      },
      {
        "id": "peaks.point.11",
        "time": 61.7302,
        "color": "rgb(239,68,68,1.0)",
        "deleted": false,
        "remarks": "",
        "editable": true,
        "labelText": "1",
        "validated": true,
        "timeValues": [
          61.05193
        ],
        "descriptors": [
          "226"
        ],
        "markerDegree": 1,
        "activeColumns": 1,
        "pointerHeight": 20,
        "itemsInAfterCol": 1,
        "itemsInBeforeCol": 0,
        "descriptorAfterActive": true,
        "descriptorBeforeActive": false
      },
      {
        "id": "peaks.point.12",
        "time": 69.2187,
        "color": "rgb(239,68,68,1.0)",
        "deleted": true,
        "remarks": "",
        "editable": true,
        "draggable": false,
        "labelText": "1",
        "validated": true,
        "timeValues": [
          64.613423
        ],
        "descriptors": [
          "200",
          "223"
        ],
        "markerDegree": 1,
        "activeColumns": 1,
        "pointerHeight": 20,
        "itemsInAfterCol": 2,
        "itemsInBeforeCol": 0,
        "descriptorAfterActive": true,
        "descriptorBeforeActive": false
      },
      {
        "id": "peaks.point.13",
        "time": 71.413,
        "color": "rgba(29,78,216,1.0)",
        "deleted": false,
        "remarks": "",
        "editable": true,
        "labelText": "2",
        "validated": true,
        "timeValues": [
          71.892346
        ],
        "descriptors": [
          "212"
        ],
        "markerDegree": 2,
        "activeColumns": 1,
        "pointerHeight": 14,
        "itemsInAfterCol": 1,
        "itemsInBeforeCol": 0,
        "descriptorAfterActive": true,
        "descriptorBeforeActive": false
      },
      {
        "id": "peaks.point.14",
        "time": 78.3209,
        "color": "rgba(4,120,87,1.0)",
        "deleted": false,
        "remarks": "",
        "editable": true,
        "labelText": "3",
        "validated": false,
        "timeValues": [
          79.253326
        ],
        "descriptors": [],
        "markerDegree": 3,
        "activeColumns": 1,
        "pointerHeight": 10,
        "itemsInAfterCol": 0,
        "itemsInBeforeCol": 0,
        "descriptorAfterActive": true,
        "descriptorBeforeActive": false
      },
      {
        "id": "peaks.point.15",
        "time": 84.3233,
        "color": "rgba(4,120,87,1.0)",
        "deleted": false,
        "remarks": "",
        "editable": true,
        "labelText": "3",
        "validated": false,
        "timeValues": [
          85.956172
        ],
        "descriptors": [],
        "markerDegree": 3,
        "activeColumns": 0,
        "pointerHeight": 10,
        "itemsInAfterCol": 0,
        "itemsInBeforeCol": 0,
        "descriptorAfterActive": false,
        "descriptorBeforeActive": false
      },
      {
        "id": "peaks.point.16",
        "time": 89.3272,
        "color": "rgb(59,130,246,1.0)",
        "deleted": false,
        "remarks": "",
        "editable": true,
        "labelText": "2",
        "validated": true,
        "timeValues": [
          90.55343
        ],
        "descriptors": [
          "224"
        ],
        "markerDegree": 2,
        "activeColumns": 1,
        "pointerHeight": 14,
        "itemsInAfterCol": 1,
        "itemsInBeforeCol": 0,
        "descriptorAfterActive": true,
        "descriptorBeforeActive": false
      },
      {
        "id": "peaks.point.17",
        "time": 91.3009,
        "color": "rgb(239,68,68,1.0)",
        "deleted": false,
        "remarks": "",
        "editable": true,
        "labelText": "1",
        "validated": true,
        "timeValues": [
          97.339998
        ],
        "descriptors": [
          "223",
          "224",
          "214"
        ],
        "markerDegree": 1,
        "activeColumns": 1,
        "pointerHeight": 20,
        "itemsInAfterCol": 3,
        "itemsInBeforeCol": 0,
        "descriptorAfterActive": true,
        "descriptorBeforeActive": false
      },
      {
        "id": "peaks.point.18",
        "time": 102.644003,
        "color": "rgba(34,197,94,1.0)",
        "deleted": true,
        "remarks": "",
        "editable": true,
        "draggable": false,
        "labelText": "3",
        "validated": false,
        "timeValues": [
          102.644003
        ],
        "descriptors": [],
        "markerDegree": 3,
        "activeColumns": 0,
        "pointerHeight": 10,
        "itemsInAfterCol": 0,
        "itemsInBeforeCol": 0,
        "descriptorAfterActive": false,
        "descriptorBeforeActive": false
      },
      {
        "id": "peaks.point.19",
        "time": 104.8033,
        "color": "rgba(34,197,94,1.0)",
        "deleted": false,
        "remarks": "",
        "editable": true,
        "labelText": "3",
        "validated": false,
        "timeValues": [
          110.853894
        ],
        "descriptors": [],
        "markerDegree": 3,
        "activeColumns": 0,
        "pointerHeight": 10,
        "itemsInAfterCol": 0,
        "itemsInBeforeCol": 0,
        "descriptorAfterActive": false,
        "descriptorBeforeActive": false
      },
      {
        "id": "peaks.point.20",
        "time": 115.2987,
        "color": "rgb(59,130,246,1.0)",
        "deleted": false,
        "remarks": "",
        "editable": true,
        "labelText": "2",
        "validated": true,
        "timeValues": [
          116.916261
        ],
        "descriptors": [
          "223",
          "224"
        ],
        "markerDegree": 2,
        "activeColumns": 1,
        "pointerHeight": 14,
        "itemsInAfterCol": 2,
        "itemsInBeforeCol": 0,
        "descriptorAfterActive": true,
        "descriptorBeforeActive": false
      },
      {
        "id": "peaks.point.21",
        "time": 119.531986,
        "color": "rgb(239,68,68,1.0)",
        "deleted": true,
        "remarks": "",
        "editable": true,
        "draggable": false,
        "labelText": "1",
        "validated": false,
        "timeValues": [
          119.531986
        ],
        "descriptors": [],
        "markerDegree": 1,
        "activeColumns": 0,
        "pointerHeight": 20,
        "itemsInAfterCol": 0,
        "itemsInBeforeCol": 0,
        "descriptorAfterActive": false,
        "descriptorBeforeActive": false
      },
      {
        "id": "peaks.point.22",
        "time": 123.58928,
        "color": "rgba(34,197,94,1.0)",
        "deleted": true,
        "remarks": "",
        "editable": true,
        "draggable": false,
        "labelText": "3",
        "validated": false,
        "timeValues": [
          123.58928
        ],
        "descriptors": [],
        "markerDegree": 3,
        "activeColumns": 0,
        "pointerHeight": 10,
        "itemsInAfterCol": 0,
        "itemsInBeforeCol": 0,
        "descriptorAfterActive": false,
        "descriptorBeforeActive": false
      },
      {
        "id": "peaks.point.23",
        "time": 123.4721,
        "color": "rgb(59,130,246,1.0)",
        "deleted": false,
        "remarks": "",
        "editable": true,
        "labelText": "2",
        "validated": true,
        "timeValues": [
          125.011927
        ],
        "descriptors": [
          "201",
          "223",
          "221"
        ],
        "markerDegree": 2,
        "activeColumns": 1,
        "pointerHeight": 14,
        "itemsInAfterCol": 3,
        "itemsInBeforeCol": 0,
        "descriptorAfterActive": true,
        "descriptorBeforeActive": false
      }
    ],
    "cuesOfStepTwo": [
      {
        "id": "peaks.point.1",
        "time": 0.9994,
        "color": "#808080",
        "deleted": false,
        "remarks": "Offset Start Time Marker",
        "editable": false,
        "labelText": "  ",
        "validated": true,
        "timeValues": [
          0.9994
        ],
        "descriptors": [],
        "markerDegree": 1,
        "pointerHeight": 20,
        "descriptorAfterActive": false,
        "descriptorBeforeActive": false
      },
      {
        "id": "peaks.point.9999",
        "time": 129.9039,
        "color": "#808080",
        "deleted": false,
        "remarks": "Offset End Time Marker",
        "editable": false,
        "labelText": "  ",
        "validated": true,
        "timeValues": [
          129.9039
        ],
        "descriptors": [],
        "markerDegree": 1,
        "pointerHeight": 20,
        "descriptorAfterActive": false,
        "descriptorBeforeActive": false
      },
      {
        "id": "peaks.point.3",
        "time": 5.7702,
        "color": "rgba(4,120,87,1.0)",
        "deleted": true,
        "remarks": "",
        "editable": true,
        "draggable": false,
        "labelText": "3",
        "validated": true,
        "timeValues": [
          6.940656
        ],
        "descriptors": [
          "224"
        ],
        "markerDegree": 3,
        "activeColumns": 1,
        "pointerHeight": 10,
        "itemsInAfterCol": 1,
        "itemsInBeforeCol": 0,
        "descriptorAfterActive": true,
        "descriptorBeforeActive": false
      },
      {
        "id": "peaks.point.4",
        "time": 9.6363,
        "color": "rgb(59,130,246,1.0)",
        "deleted": false,
        "remarks": "",
        "editable": true,
        "labelText": "2",
        "validated": true,
        "timeValues": [
          10.373775
        ],
        "descriptors": [
          "223",
          "224",
          "205"
        ],
        "markerDegree": 2,
        "activeColumns": 1,
        "pointerHeight": 14,
        "itemsInAfterCol": 3,
        "itemsInBeforeCol": 0,
        "descriptorAfterActive": true,
        "descriptorBeforeActive": false
      },
      {
        "id": "peaks.point.5",
        "time": 13.723,
        "color": "rgb(239,68,68,1.0)",
        "deleted": true,
        "remarks": "",
        "editable": true,
        "draggable": false,
        "labelText": "1",
        "validated": false,
        "timeValues": [
          13.316561
        ],
        "descriptors": [],
        "markerDegree": 1,
        "activeColumns": 0,
        "pointerHeight": 20,
        "itemsInAfterCol": 0,
        "itemsInBeforeCol": 0,
        "descriptorAfterActive": false,
        "descriptorBeforeActive": false
      },
      {
        "id": "peaks.point.6",
        "time": 19.261,
        "color": "rgba(4,120,87,1.0)",
        "deleted": true,
        "remarks": "",
        "editable": true,
        "draggable": false,
        "labelText": "3",
        "validated": false,
        "timeValues": [
          19.822255
        ],
        "descriptors": [],
        "markerDegree": 3,
        "activeColumns": 0,
        "pointerHeight": 10,
        "itemsInAfterCol": 0,
        "itemsInBeforeCol": 0,
        "descriptorAfterActive": false,
        "descriptorBeforeActive": false
      },
      {
        "id": "peaks.point.7",
        "time": 33.964849,
        "color": "rgb(59,130,246,1.0)",
        "deleted": true,
        "remarks": "",
        "editable": true,
        "draggable": false,
        "labelText": "2",
        "validated": false,
        "timeValues": [
          33.964849
        ],
        "descriptors": [],
        "markerDegree": 2,
        "activeColumns": 0,
        "pointerHeight": 14,
        "itemsInAfterCol": 0,
        "itemsInBeforeCol": 0,
        "descriptorAfterActive": false,
        "descriptorBeforeActive": false
      },
      {
        "id": "peaks.point.8",
        "time": 39.0095,
        "color": "rgb(59,130,246,1.0)",
        "deleted": false,
        "remarks": "",
        "editable": true,
        "labelText": "2",
        "validated": true,
        "timeValues": [
          42.963445
        ],
        "descriptors": [
          "223",
          "221"
        ],
        "markerDegree": 2,
        "activeColumns": 1,
        "pointerHeight": 14,
        "itemsInAfterCol": 2,
        "itemsInBeforeCol": 0,
        "descriptorAfterActive": true,
        "descriptorBeforeActive": false
      },
      {
        "id": "peaks.point.9",
        "time": 46.6953,
        "color": "rgb(239,68,68,1.0)",
        "deleted": false,
        "remarks": "",
        "editable": true,
        "labelText": "1",
        "validated": true,
        "timeValues": [
          47.716506
        ],
        "descriptors": [
          "201",
          "224",
          "221"
        ],
        "markerDegree": 1,
        "activeColumns": 1,
        "pointerHeight": 20,
        "itemsInAfterCol": 3,
        "itemsInBeforeCol": 0,
        "descriptorAfterActive": true,
        "descriptorBeforeActive": false
      },
      {
        "id": "peaks.point.10",
        "time": 52.5932,
        "color": "rgb(59,130,246,1.0)",
        "deleted": true,
        "remarks": "",
        "editable": true,
        "draggable": false,
        "labelText": "2",
        "validated": true,
        "timeValues": [
          53.900714
        ],
        "descriptors": [
          "223"
        ],
        "markerDegree": 2,
        "activeColumns": 1,
        "pointerHeight": 14,
        "itemsInAfterCol": 1,
        "itemsInBeforeCol": 0,
        "descriptorAfterActive": true,
        "descriptorBeforeActive": false
      },
      {
        "id": "peaks.point.11",
        "time": 61.7302,
        "color": "rgb(239,68,68,1.0)",
        "deleted": false,
        "remarks": "",
        "editable": true,
        "labelText": "1",
        "validated": true,
        "timeValues": [
          61.05193
        ],
        "descriptors": [
          "226"
        ],
        "markerDegree": 1,
        "activeColumns": 1,
        "pointerHeight": 20,
        "itemsInAfterCol": 1,
        "itemsInBeforeCol": 0,
        "descriptorAfterActive": true,
        "descriptorBeforeActive": false
      },
      {
        "id": "peaks.point.12",
        "time": 69.2187,
        "color": "rgb(239,68,68,1.0)",
        "deleted": true,
        "remarks": "",
        "editable": true,
        "draggable": false,
        "labelText": "1",
        "validated": true,
        "timeValues": [
          64.613423
        ],
        "descriptors": [
          "200",
          "223"
        ],
        "markerDegree": 1,
        "activeColumns": 1,
        "pointerHeight": 20,
        "itemsInAfterCol": 2,
        "itemsInBeforeCol": 0,
        "descriptorAfterActive": true,
        "descriptorBeforeActive": false
      },
      {
        "id": "peaks.point.13",
        "time": 71.413,
        "color": "rgba(29,78,216,1.0)",
        "deleted": false,
        "remarks": "",
        "editable": true,
        "labelText": "2",
        "validated": true,
        "timeValues": [
          71.892346
        ],
        "descriptors": [
          "212"
        ],
        "markerDegree": 2,
        "activeColumns": 1,
        "pointerHeight": 14,
        "itemsInAfterCol": 1,
        "itemsInBeforeCol": 0,
        "descriptorAfterActive": true,
        "descriptorBeforeActive": false
      },
      {
        "id": "peaks.point.14",
        "time": 78.3209,
        "color": "rgba(4,120,87,1.0)",
        "deleted": false,
        "remarks": "",
        "editable": true,
        "labelText": "3",
        "validated": false,
        "timeValues": [
          79.253326
        ],
        "descriptors": [],
        "markerDegree": 3,
        "activeColumns": 1,
        "pointerHeight": 10,
        "itemsInAfterCol": 0,
        "itemsInBeforeCol": 0,
        "descriptorAfterActive": true,
        "descriptorBeforeActive": false
      },
      {
        "id": "peaks.point.15",
        "time": 84.3233,
        "color": "rgba(4,120,87,1.0)",
        "deleted": false,
        "remarks": "",
        "editable": true,
        "labelText": "3",
        "validated": false,
        "timeValues": [
          85.956172
        ],
        "descriptors": [],
        "markerDegree": 3,
        "activeColumns": 0,
        "pointerHeight": 10,
        "itemsInAfterCol": 0,
        "itemsInBeforeCol": 0,
        "descriptorAfterActive": false,
        "descriptorBeforeActive": false
      },
      {
        "id": "peaks.point.16",
        "time": 89.3272,
        "color": "rgb(59,130,246,1.0)",
        "deleted": false,
        "remarks": "",
        "editable": true,
        "labelText": "2",
        "validated": true,
        "timeValues": [
          90.55343
        ],
        "descriptors": [
          "224"
        ],
        "markerDegree": 2,
        "activeColumns": 1,
        "pointerHeight": 14,
        "itemsInAfterCol": 1,
        "itemsInBeforeCol": 0,
        "descriptorAfterActive": true,
        "descriptorBeforeActive": false
      },
      {
        "id": "peaks.point.17",
        "time": 91.3009,
        "color": "rgb(239,68,68,1.0)",
        "deleted": false,
        "remarks": "",
        "editable": true,
        "labelText": "1",
        "validated": true,
        "timeValues": [
          97.339998
        ],
        "descriptors": [
          "223",
          "224",
          "214"
        ],
        "markerDegree": 1,
        "activeColumns": 1,
        "pointerHeight": 20,
        "itemsInAfterCol": 3,
        "itemsInBeforeCol": 0,
        "descriptorAfterActive": true,
        "descriptorBeforeActive": false
      },
      {
        "id": "peaks.point.18",
        "time": 102.644003,
        "color": "rgba(34,197,94,1.0)",
        "deleted": true,
        "remarks": "",
        "editable": true,
        "draggable": false,
        "labelText": "3",
        "validated": false,
        "timeValues": [
          102.644003
        ],
        "descriptors": [],
        "markerDegree": 3,
        "activeColumns": 0,
        "pointerHeight": 10,
        "itemsInAfterCol": 0,
        "itemsInBeforeCol": 0,
        "descriptorAfterActive": false,
        "descriptorBeforeActive": false
      },
      {
        "id": "peaks.point.19",
        "time": 104.8033,
        "color": "rgba(34,197,94,1.0)",
        "deleted": false,
        "remarks": "",
        "editable": true,
        "labelText": "3",
        "validated": false,
        "timeValues": [
          110.853894
        ],
        "descriptors": [],
        "markerDegree": 3,
        "activeColumns": 0,
        "pointerHeight": 10,
        "itemsInAfterCol": 0,
        "itemsInBeforeCol": 0,
        "descriptorAfterActive": false,
        "descriptorBeforeActive": false
      },
      {
        "id": "peaks.point.20",
        "time": 115.2987,
        "color": "rgb(59,130,246,1.0)",
        "deleted": false,
        "remarks": "",
        "editable": true,
        "labelText": "2",
        "validated": true,
        "timeValues": [
          116.916261
        ],
        "descriptors": [
          "223",
          "224"
        ],
        "markerDegree": 2,
        "activeColumns": 1,
        "pointerHeight": 14,
        "itemsInAfterCol": 2,
        "itemsInBeforeCol": 0,
        "descriptorAfterActive": true,
        "descriptorBeforeActive": false
      },
      {
        "id": "peaks.point.21",
        "time": 119.531986,
        "color": "rgb(239,68,68,1.0)",
        "deleted": true,
        "remarks": "",
        "editable": true,
        "draggable": false,
        "labelText": "1",
        "validated": false,
        "timeValues": [
          119.531986
        ],
        "descriptors": [],
        "markerDegree": 1,
        "activeColumns": 0,
        "pointerHeight": 20,
        "itemsInAfterCol": 0,
        "itemsInBeforeCol": 0,
        "descriptorAfterActive": false,
        "descriptorBeforeActive": false
      },
      {
        "id": "peaks.point.22",
        "time": 123.58928,
        "color": "rgba(34,197,94,1.0)",
        "deleted": true,
        "remarks": "",
        "editable": true,
        "draggable": false,
        "labelText": "3",
        "validated": false,
        "timeValues": [
          123.58928
        ],
        "descriptors": [],
        "markerDegree": 3,
        "activeColumns": 0,
        "pointerHeight": 10,
        "itemsInAfterCol": 0,
        "itemsInBeforeCol": 0,
        "descriptorAfterActive": false,
        "descriptorBeforeActive": false
      },
      {
        "id": "peaks.point.23",
        "time": 123.4721,
        "color": "rgb(59,130,246,1.0)",
        "deleted": false,
        "remarks": "",
        "editable": true,
        "labelText": "2",
        "validated": true,
        "timeValues": [
          125.011927
        ],
        "descriptors": [
          "201",
          "223",
          "221"
        ],
        "markerDegree": 2,
        "activeColumns": 1,
        "pointerHeight": 14,
        "itemsInAfterCol": 3,
        "itemsInBeforeCol": 0,
        "descriptorAfterActive": true,
        "descriptorBeforeActive": false
      },
      {
        "id": "peaks.point.24",
        "time": 1.056507,
        "color": "rgba(185,28,28,1.0)",
        "deleted": true,
        "remarks": "",
        "editable": true,
        "draggable": false,
        "labelText": "1",
        "validated": true,
        "descriptors": [
          "201"
        ],
        "markerDegree": 1,
        "activeColumns": 1,
        "pointerHeight": 20,
        "itemsInAfterCol": 1,
        "itemsInBeforeCol": 0,
        "descriptorAfterActive": true,
        "descriptorBeforeActive": false
      }
    ],
    "participant_data": {
      "id": 50,
      "expert": true,
      "gender": "male",
      "birthDay": "1993-02-19",
      "trainingFocus": [
        "theoretical_composition_music_theory_musicology"
      ],
      "trainingLevel": "university_conservatory",
      "listeningExperience": "long_term_experience"
    }
  },
  "experiment_group_id": null,
  "pilot_experiment_id": {
    "id": 18,
    "title": "Group 2 (Pilot)",
    "description": "<p>Diederk de Ceuster</p>",
    "code": "podpil_gr2_dieceu22",
    "pilot_participant_id": null,
    "Code_has_been_used": null,
    "locale": "en",
    "published_at": "2022-02-06T12:26:34.651Z",
    "created_at": "2022-02-04T17:01:29.822Z",
    "updated_at": "2022-02-11T12:39:25.849Z",
    "experiment_finished": "false",
    "participant_id": 50,
    "feedback": null,
    "mp3_files": [
      {
        "id": 50,
        "total_cues_allowed": 15,
        "description": "<p>Berg, Alban, Vier Stücke für Klarinette und Klavier op. 5, i</p>",
        "title": "Task 1",
        "offsetStartTime": null,
        "offsetEndTime": null,
        "offset_start_time": 2.0473,
        "offset_end_time": 79.238,
        "mp3_file": {
          "id": 47,
          "name": "Berg_Four Pieces For Clarinet And Piano, Op.5 - 1.mp3",
          "alternativeText": "",
          "caption": "",
          "width": null,
          "height": null,
          "formats": null,
          "hash": "Berg_Four_Pieces_For_Clarinet_And_Piano_Op_5_1_f044349166",
          "ext": ".mp3",
          "mime": "audio/mpeg",
          "size": 1718.27,
          "url": "https://points-of-discontinuity-objects.s3.eu-central-1.amazonaws.com/Berg_Four_Pieces_For_Clarinet_And_Piano_Op_5_1_f044349166.mp3",
          "previewUrl": null,
          "provider": "aws-s3",
          "provider_metadata": null,
          "created_at": "2022-02-04T17:00:58.253Z",
          "updated_at": "2022-02-04T17:00:58.262Z"
        }
      },
      {
        "id": 51,
        "total_cues_allowed": 40,
        "description": "<p>Chen, Yi, Ge Xu (Antiphony)</p>",
        "title": "Task 2",
        "offsetStartTime": null,
        "offsetEndTime": null,
        "offset_start_time": 0.1008,
        "offset_end_time": 466.7733,
        "mp3_file": {
          "id": 48,
          "name": "Chen Yi_Ge Xu.mp3",
          "alternativeText": "",
          "caption": "",
          "width": null,
          "height": null,
          "formats": null,
          "hash": "Chen_Yi_Ge_Xu_99ff058c68",
          "ext": ".mp3",
          "mime": "audio/mpeg",
          "size": 11437.1,
          "url": "https://points-of-discontinuity-objects.s3.eu-central-1.amazonaws.com/Chen_Yi_Ge_Xu_99ff058c68.mp3",
          "previewUrl": null,
          "provider": "aws-s3",
          "provider_metadata": null,
          "created_at": "2022-02-05T12:17:51.837Z",
          "updated_at": "2022-02-05T12:17:51.849Z"
        }
      },
      {
        "id": 52,
        "total_cues_allowed": 14,
        "description": "<p><span style=\"color:black;\">Spahlinger, Mathias, Furioso Excerpt</span></p>",
        "title": "Task 3",
        "offsetStartTime": null,
        "offsetEndTime": null,
        "offset_start_time": 0.9994,
        "offset_end_time": 129.9039,
        "mp3_file": {
          "id": 49,
          "name": "Spahlinger_Furioso(excerpt).mp3",
          "alternativeText": "",
          "caption": "",
          "width": null,
          "height": null,
          "formats": null,
          "hash": "Spahlinger_Furioso_excerpt_667725edc0",
          "ext": ".mp3",
          "mime": "audio/mpeg",
          "size": 2074.16,
          "url": "https://points-of-discontinuity-objects.s3.eu-central-1.amazonaws.com/Spahlinger_Furioso_excerpt_667725edc0.mp3",
          "previewUrl": null,
          "provider": "aws-s3",
          "provider_metadata": null,
          "created_at": "2022-02-05T12:20:36.885Z",
          "updated_at": "2022-02-05T12:20:36.896Z"
        }
      },
      {
        "id": 53,
        "total_cues_allowed": 10,
        "description": "<p><span style=\"color:black;\">Barrett, Natasha, Animalcules Excerpt</span></p>",
        "title": "Task 4",
        "offsetStartTime": null,
        "offsetEndTime": null,
        "offset_start_time": 1.0216,
        "offset_end_time": 131.074,
        "mp3_file": {
          "id": 68,
          "name": "Barrett_Animalcules(Excerpt).mp3",
          "alternativeText": "",
          "caption": "",
          "width": null,
          "height": null,
          "formats": {},
          "hash": "Barrett_Animalcules_Excerpt_b1a8273455",
          "ext": ".mp3",
          "mime": "audio/mpeg",
          "size": 2109.33,
          "url": "https://points-of-discontinuity-objects.s3.eu-central-1.amazonaws.com/Barrett_Animalcules_Excerpt_b1a8273455.mp3",
          "previewUrl": null,
          "provider": "aws-s3",
          "provider_metadata": null,
          "created_at": "2022-02-06T18:02:29.757Z",
          "updated_at": "2022-02-06T18:10:41.248Z"
        }
      },
      {
        "id": 54,
        "total_cues_allowed": 50,
        "description": "<p><span style=\"color:black;\">Ferneyhough, Brian, Time and Motion Study I, bass clarinet (1971–77)</span></p>",
        "title": "Task 5",
        "offsetStartTime": null,
        "offsetEndTime": null,
        "offset_start_time": 2.4,
        "offset_end_time": 585.9759,
        "mp3_file": {
          "id": 65,
          "name": "Ferneyhough_TimeAndMotionStudyI.mp3",
          "alternativeText": "",
          "caption": "",
          "width": null,
          "height": null,
          "formats": null,
          "hash": "Ferneyhough_Time_And_Motion_Study_I_b0e717fca6",
          "ext": ".mp3",
          "mime": "audio/mpeg",
          "size": 12086.83,
          "url": "https://points-of-discontinuity-objects.s3.eu-central-1.amazonaws.com/Ferneyhough_Time_And_Motion_Study_I_b0e717fca6.mp3",
          "previewUrl": null,
          "provider": "aws-s3",
          "provider_metadata": null,
          "created_at": "2022-02-05T19:05:47.962Z",
          "updated_at": "2022-02-05T19:05:47.973Z"
        }
      },
      {
        "id": 55,
        "total_cues_allowed": 35,
        "description": "<p><span style=\"color:black;\">Furrer, Beat, spur für Klavier und Streichquartett</span></p>",
        "title": "Task 6",
        "offsetStartTime": null,
        "offsetEndTime": null,
        "offset_start_time": 2.0044,
        "offset_end_time": 767.6831,
        "mp3_file": {
          "id": 51,
          "name": "Furrer_spur_1998.mp3",
          "alternativeText": "",
          "caption": "",
          "width": null,
          "height": null,
          "formats": null,
          "hash": "Furrer_spur_1998_1641dc1ba5",
          "ext": ".mp3",
          "mime": "audio/mpeg",
          "size": 17463.52,
          "url": "https://points-of-discontinuity-objects.s3.eu-central-1.amazonaws.com/Furrer_spur_1998_1641dc1ba5.mp3",
          "previewUrl": null,
          "provider": "aws-s3",
          "provider_metadata": null,
          "created_at": "2022-02-05T12:28:18.944Z",
          "updated_at": "2022-02-05T12:28:18.952Z"
        }
      },
      {
        "id": 78,
        "total_cues_allowed": null,
        "description": null,
        "title": null,
        "offsetStartTime": null,
        "offsetEndTime": null,
        "offset_start_time": null,
        "offset_end_time": null,
        "mp3_file": null
      }
    ],
    "click_sounds": [
      {
        "id": 18,
        "name": "click_druminfected_1.mp3",
        "alternativeText": "",
        "caption": "",
        "width": null,
        "height": null,
        "formats": null,
        "hash": "click_druminfected_1_fba408ea30",
        "ext": ".mp3",
        "mime": "audio/mpeg",
        "size": 33.48,
        "url": "https://points-of-discontinuity-objects.s3.eu-central-1.amazonaws.com/click_druminfected_1_fba408ea30.mp3",
        "previewUrl": null,
        "provider": "aws-s3",
        "provider_metadata": null,
        "created_at": "2021-11-21T12:53:47.194Z",
        "updated_at": "2022-01-04T19:59:14.494Z"
      }
    ]
  },
  "task_id": "2",
  "expert": true,
  "filename": "partid-50_pilotid-18_taskid-2"
}