{
  "id": 104,
  "participant_id": null,
  "result": null,
  "experiment_group": null,
  "published_at": "2022-02-10T08:00:10.160Z",
  "created_at": "2022-02-10T08:00:10.164Z",
  "updated_at": "2022-02-10T08:00:10.174Z",
  "experiment_participant_id": {},
  "pilot_participant_id": {
    "id": 49,
    "first_name": null,
    "middle_initial": null,
    "last_name": null,
    "display_name": "Rebrina, Marko",
    "date_of_birth": null,
    "email": "rebrinamarko@gmail.com",
    "phone": null,
    "salutation": null,
    "jsondata": {
      "person": {
        "email": "rebrinamarko@gmail.com",
        "phone": "00385996360924",
        "gender": "male",
        "last_name": "Rebrina",
        "first_name": "Marko",
        "display_name": "Rebrina, Marko",
        "date_of_birth": "1997-11-04",
        "middle_initial": ""
      },
      "participant_data": {
        "expert": false,
        "gender": "male",
        "date_of_birth": "1997-11-04"
      },
      "musical_expertise": {
        "expert": false,
        "training_level": "none",
        "listening_experience": "no_experience"
      }
    },
    "listening_experience": null,
    "expert": false,
    "pilot_experiment_id": null,
    "created_at": "2022-02-06T18:44:30.430Z",
    "updated_at": "2022-02-06T18:45:02.026Z",
    "invite_code_used": "podpil_gr4_marreb22",
    "pilot_id": 22
  },
  "results": {
    "fileId": 3,
    "fileData": {
      "id": 3,
      "title": "Task 4",
      "mediaId": 61,
      "analysed": false,
      "mediaUrl": "https://points-of-discontinuity-objects.s3.eu-central-1.amazonaws.com/Harrison_Klang_excerpt_68f61f6466.mp3",
      "webAudio": {},
      "mediaName": "Harrison_Klang_excerpt.mp3",
      "description": "<p><span style=\"color:black;\">Harrison, Jonty, Klang Excerpt</span></p>",
      "clickSoundUrl": "https://points-of-discontinuity-objects.s3.eu-central-1.amazonaws.com/click_druminfected_1_fba408ea30.mp3",
      "offsetEndMarker": {
        "id": 9999,
        "time": 112.8606,
        "type": 1,
        "color": "#808080",
        "degree": 1
      },
      "offsetStartMarker": {
        "id": 0,
        "time": 2,
        "type": 1,
        "color": "#808080",
        "degree": 1
      },
      "totalAmountOfCues": 15,
      "mediaAlternativeText": ""
    },
    "combinedCues": {
      "0": {
        "id": "peaks.point.1",
        "time": 2,
        "color": "#808080",
        "deleted": false,
        "remarks": "Offset Start Time Marker",
        "editable": false,
        "labelText": "  ",
        "validated": true,
        "timeValues": [
          2
        ],
        "descriptors": [],
        "markerDegree": 1,
        "pointerHeight": 20,
        "descriptorAfterActive": false,
        "descriptorBeforeActive": false
      },
      "1": {
        "id": "peaks.point.9999",
        "time": 112.8606,
        "color": "#808080",
        "deleted": false,
        "remarks": "Offset End Time Marker",
        "editable": false,
        "labelText": "  ",
        "validated": true,
        "timeValues": [
          112.8606
        ],
        "descriptors": [],
        "markerDegree": 1,
        "pointerHeight": 20,
        "descriptorAfterActive": false,
        "descriptorBeforeActive": false
      },
      "2": {
        "id": "peaks.point.3",
        "time": 5.296404,
        "color": "rgb(59,130,246,1.0)",
        "deleted": false,
        "remarks": "",
        "editable": true,
        "labelText": "2",
        "validated": true,
        "timeValues": [
          5.296404
        ],
        "descriptors": [
          "113",
          "213"
        ],
        "markerDegree": 2,
        "activeColumns": 2,
        "pointerHeight": 14,
        "itemsInAfterCol": 1,
        "itemsInBeforeCol": 1,
        "descriptorAfterActive": true,
        "descriptorBeforeActive": true
      },
      "3": {
        "id": "peaks.point.4",
        "time": 9.8349,
        "color": "rgb(59,130,246,1.0)",
        "deleted": false,
        "remarks": "",
        "editable": true,
        "labelText": "2",
        "validated": true,
        "timeValues": [
          10.765199
        ],
        "descriptors": [
          "124",
          "125",
          "126"
        ],
        "markerDegree": 2,
        "activeColumns": 1,
        "pointerHeight": 14,
        "itemsInAfterCol": 0,
        "itemsInBeforeCol": 3,
        "descriptorAfterActive": false,
        "descriptorBeforeActive": true
      },
      "4": {
        "id": "peaks.point.5",
        "time": 32.9128,
        "color": "rgba(34,197,94,1.0)",
        "deleted": false,
        "remarks": "",
        "editable": true,
        "labelText": "3",
        "validated": true,
        "timeValues": [
          53.184057
        ],
        "descriptors": [
          "119",
          "219"
        ],
        "markerDegree": 3,
        "activeColumns": 2,
        "pointerHeight": 10,
        "itemsInAfterCol": 1,
        "itemsInBeforeCol": 1,
        "descriptorAfterActive": true,
        "descriptorBeforeActive": true
      },
      "5": {
        "id": "peaks.point.6",
        "time": 59.4961,
        "color": "rgb(59,130,246,1.0)",
        "deleted": false,
        "remarks": "",
        "editable": true,
        "labelText": "2",
        "validated": true,
        "timeValues": [
          61.370759
        ],
        "descriptors": [
          "205",
          "124",
          "224"
        ],
        "markerDegree": 2,
        "activeColumns": 2,
        "pointerHeight": 14,
        "itemsInAfterCol": 2,
        "itemsInBeforeCol": 1,
        "descriptorAfterActive": true,
        "descriptorBeforeActive": true
      },
      "6": {
        "id": "peaks.point.7",
        "time": 68.1625,
        "color": "rgb(239,68,68,1.0)",
        "deleted": false,
        "remarks": "",
        "editable": true,
        "labelText": "1",
        "validated": true,
        "timeValues": [
          68.618731
        ],
        "descriptors": [
          "105"
        ],
        "markerDegree": 1,
        "activeColumns": 1,
        "pointerHeight": 20,
        "itemsInAfterCol": 0,
        "itemsInBeforeCol": 1,
        "descriptorAfterActive": false,
        "descriptorBeforeActive": true
      },
      "7": {
        "id": "peaks.point.8",
        "time": 76.6341,
        "color": "rgb(239,68,68,1.0)",
        "deleted": false,
        "remarks": "",
        "editable": true,
        "labelText": "1",
        "validated": true,
        "timeValues": [
          77.470381
        ],
        "descriptors": [
          "105",
          "124",
          "125"
        ],
        "markerDegree": 1,
        "activeColumns": 1,
        "pointerHeight": 20,
        "itemsInAfterCol": 0,
        "itemsInBeforeCol": 3,
        "descriptorAfterActive": false,
        "descriptorBeforeActive": true
      },
      "8": {
        "id": "peaks.point.9",
        "time": 92.5062,
        "color": "rgb(239,68,68,1.0)",
        "deleted": false,
        "remarks": "",
        "editable": true,
        "labelText": "1",
        "validated": true,
        "timeValues": [
          97.389932
        ],
        "descriptors": [
          "102",
          "206",
          "207"
        ],
        "markerDegree": 1,
        "activeColumns": 2,
        "pointerHeight": 20,
        "itemsInAfterCol": 2,
        "itemsInBeforeCol": 1,
        "descriptorAfterActive": true,
        "descriptorBeforeActive": true
      },
      "9": {
        "id": "peaks.point.10",
        "time": 105.334653,
        "color": "rgba(29,78,216,1.0)",
        "deleted": false,
        "remarks": "",
        "editable": true,
        "labelText": "2",
        "validated": true,
        "descriptors": [
          "118",
          "208"
        ],
        "markerDegree": 2,
        "activeColumns": 2,
        "pointerHeight": 14,
        "itemsInAfterCol": 1,
        "itemsInBeforeCol": 1,
        "descriptorAfterActive": true,
        "descriptorBeforeActive": true
      }
    },
    "cuesOfStepOne": [
      {
        "id": "peaks.point.1",
        "time": 2,
        "color": "#808080",
        "deleted": false,
        "remarks": "Offset Start Time Marker",
        "editable": false,
        "labelText": "  ",
        "validated": true,
        "timeValues": [
          2
        ],
        "descriptors": [],
        "markerDegree": 1,
        "pointerHeight": 20,
        "descriptorAfterActive": false,
        "descriptorBeforeActive": false
      },
      {
        "id": "peaks.point.9999",
        "time": 112.8606,
        "color": "#808080",
        "deleted": false,
        "remarks": "Offset End Time Marker",
        "editable": false,
        "labelText": "  ",
        "validated": true,
        "timeValues": [
          112.8606
        ],
        "descriptors": [],
        "markerDegree": 1,
        "pointerHeight": 20,
        "descriptorAfterActive": false,
        "descriptorBeforeActive": false
      },
      {
        "id": "peaks.point.3",
        "time": 5.296404,
        "color": "rgb(59,130,246,1.0)",
        "deleted": false,
        "remarks": "",
        "editable": true,
        "labelText": "2",
        "validated": true,
        "timeValues": [
          5.296404
        ],
        "descriptors": [
          "113",
          "213"
        ],
        "markerDegree": 2,
        "activeColumns": 2,
        "pointerHeight": 14,
        "itemsInAfterCol": 1,
        "itemsInBeforeCol": 1,
        "descriptorAfterActive": true,
        "descriptorBeforeActive": true
      },
      {
        "id": "peaks.point.4",
        "time": 9.8349,
        "color": "rgb(59,130,246,1.0)",
        "deleted": false,
        "remarks": "",
        "editable": true,
        "labelText": "2",
        "validated": true,
        "timeValues": [
          10.765199
        ],
        "descriptors": [
          "124",
          "125",
          "126"
        ],
        "markerDegree": 2,
        "activeColumns": 1,
        "pointerHeight": 14,
        "itemsInAfterCol": 0,
        "itemsInBeforeCol": 3,
        "descriptorAfterActive": false,
        "descriptorBeforeActive": true
      },
      {
        "id": "peaks.point.5",
        "time": 32.9128,
        "color": "rgba(34,197,94,1.0)",
        "deleted": false,
        "remarks": "",
        "editable": true,
        "labelText": "3",
        "validated": true,
        "timeValues": [
          53.184057
        ],
        "descriptors": [
          "119",
          "219"
        ],
        "markerDegree": 3,
        "activeColumns": 2,
        "pointerHeight": 10,
        "itemsInAfterCol": 1,
        "itemsInBeforeCol": 1,
        "descriptorAfterActive": true,
        "descriptorBeforeActive": true
      },
      {
        "id": "peaks.point.6",
        "time": 59.4961,
        "color": "rgb(59,130,246,1.0)",
        "deleted": false,
        "remarks": "",
        "editable": true,
        "labelText": "2",
        "validated": true,
        "timeValues": [
          61.370759
        ],
        "descriptors": [
          "205",
          "124",
          "224"
        ],
        "markerDegree": 2,
        "activeColumns": 2,
        "pointerHeight": 14,
        "itemsInAfterCol": 2,
        "itemsInBeforeCol": 1,
        "descriptorAfterActive": true,
        "descriptorBeforeActive": true
      },
      {
        "id": "peaks.point.7",
        "time": 68.1625,
        "color": "rgb(239,68,68,1.0)",
        "deleted": false,
        "remarks": "",
        "editable": true,
        "labelText": "1",
        "validated": true,
        "timeValues": [
          68.618731
        ],
        "descriptors": [
          "105"
        ],
        "markerDegree": 1,
        "activeColumns": 1,
        "pointerHeight": 20,
        "itemsInAfterCol": 0,
        "itemsInBeforeCol": 1,
        "descriptorAfterActive": false,
        "descriptorBeforeActive": true
      },
      {
        "id": "peaks.point.8",
        "time": 76.6341,
        "color": "rgb(239,68,68,1.0)",
        "deleted": false,
        "remarks": "",
        "editable": true,
        "labelText": "1",
        "validated": true,
        "timeValues": [
          77.470381
        ],
        "descriptors": [
          "105",
          "124",
          "125"
        ],
        "markerDegree": 1,
        "activeColumns": 1,
        "pointerHeight": 20,
        "itemsInAfterCol": 0,
        "itemsInBeforeCol": 3,
        "descriptorAfterActive": false,
        "descriptorBeforeActive": true
      },
      {
        "id": "peaks.point.9",
        "time": 92.5062,
        "color": "rgb(239,68,68,1.0)",
        "deleted": false,
        "remarks": "",
        "editable": true,
        "labelText": "1",
        "validated": true,
        "timeValues": [
          97.389932
        ],
        "descriptors": [
          "102",
          "206",
          "207"
        ],
        "markerDegree": 1,
        "activeColumns": 2,
        "pointerHeight": 20,
        "itemsInAfterCol": 2,
        "itemsInBeforeCol": 1,
        "descriptorAfterActive": true,
        "descriptorBeforeActive": true
      }
    ],
    "cuesOfStepTwo": [
      {
        "id": "peaks.point.1",
        "time": 2,
        "color": "#808080",
        "deleted": false,
        "remarks": "Offset Start Time Marker",
        "editable": false,
        "labelText": "  ",
        "validated": true,
        "timeValues": [
          2
        ],
        "descriptors": [],
        "markerDegree": 1,
        "pointerHeight": 20,
        "descriptorAfterActive": false,
        "descriptorBeforeActive": false
      },
      {
        "id": "peaks.point.9999",
        "time": 112.8606,
        "color": "#808080",
        "deleted": false,
        "remarks": "Offset End Time Marker",
        "editable": false,
        "labelText": "  ",
        "validated": true,
        "timeValues": [
          112.8606
        ],
        "descriptors": [],
        "markerDegree": 1,
        "pointerHeight": 20,
        "descriptorAfterActive": false,
        "descriptorBeforeActive": false
      },
      {
        "id": "peaks.point.3",
        "time": 5.296404,
        "color": "rgb(59,130,246,1.0)",
        "deleted": false,
        "remarks": "",
        "editable": true,
        "labelText": "2",
        "validated": true,
        "timeValues": [
          5.296404
        ],
        "descriptors": [
          "113",
          "213"
        ],
        "markerDegree": 2,
        "activeColumns": 2,
        "pointerHeight": 14,
        "itemsInAfterCol": 1,
        "itemsInBeforeCol": 1,
        "descriptorAfterActive": true,
        "descriptorBeforeActive": true
      },
      {
        "id": "peaks.point.4",
        "time": 9.8349,
        "color": "rgb(59,130,246,1.0)",
        "deleted": false,
        "remarks": "",
        "editable": true,
        "labelText": "2",
        "validated": true,
        "timeValues": [
          10.765199
        ],
        "descriptors": [
          "124",
          "125",
          "126"
        ],
        "markerDegree": 2,
        "activeColumns": 1,
        "pointerHeight": 14,
        "itemsInAfterCol": 0,
        "itemsInBeforeCol": 3,
        "descriptorAfterActive": false,
        "descriptorBeforeActive": true
      },
      {
        "id": "peaks.point.5",
        "time": 32.9128,
        "color": "rgba(34,197,94,1.0)",
        "deleted": false,
        "remarks": "",
        "editable": true,
        "labelText": "3",
        "validated": true,
        "timeValues": [
          53.184057
        ],
        "descriptors": [
          "119",
          "219"
        ],
        "markerDegree": 3,
        "activeColumns": 2,
        "pointerHeight": 10,
        "itemsInAfterCol": 1,
        "itemsInBeforeCol": 1,
        "descriptorAfterActive": true,
        "descriptorBeforeActive": true
      },
      {
        "id": "peaks.point.6",
        "time": 59.4961,
        "color": "rgb(59,130,246,1.0)",
        "deleted": false,
        "remarks": "",
        "editable": true,
        "labelText": "2",
        "validated": true,
        "timeValues": [
          61.370759
        ],
        "descriptors": [
          "205",
          "124",
          "224"
        ],
        "markerDegree": 2,
        "activeColumns": 2,
        "pointerHeight": 14,
        "itemsInAfterCol": 2,
        "itemsInBeforeCol": 1,
        "descriptorAfterActive": true,
        "descriptorBeforeActive": true
      },
      {
        "id": "peaks.point.7",
        "time": 68.1625,
        "color": "rgb(239,68,68,1.0)",
        "deleted": false,
        "remarks": "",
        "editable": true,
        "labelText": "1",
        "validated": true,
        "timeValues": [
          68.618731
        ],
        "descriptors": [
          "105"
        ],
        "markerDegree": 1,
        "activeColumns": 1,
        "pointerHeight": 20,
        "itemsInAfterCol": 0,
        "itemsInBeforeCol": 1,
        "descriptorAfterActive": false,
        "descriptorBeforeActive": true
      },
      {
        "id": "peaks.point.8",
        "time": 76.6341,
        "color": "rgb(239,68,68,1.0)",
        "deleted": false,
        "remarks": "",
        "editable": true,
        "labelText": "1",
        "validated": true,
        "timeValues": [
          77.470381
        ],
        "descriptors": [
          "105",
          "124",
          "125"
        ],
        "markerDegree": 1,
        "activeColumns": 1,
        "pointerHeight": 20,
        "itemsInAfterCol": 0,
        "itemsInBeforeCol": 3,
        "descriptorAfterActive": false,
        "descriptorBeforeActive": true
      },
      {
        "id": "peaks.point.9",
        "time": 92.5062,
        "color": "rgb(239,68,68,1.0)",
        "deleted": false,
        "remarks": "",
        "editable": true,
        "labelText": "1",
        "validated": true,
        "timeValues": [
          97.389932
        ],
        "descriptors": [
          "102",
          "206",
          "207"
        ],
        "markerDegree": 1,
        "activeColumns": 2,
        "pointerHeight": 20,
        "itemsInAfterCol": 2,
        "itemsInBeforeCol": 1,
        "descriptorAfterActive": true,
        "descriptorBeforeActive": true
      },
      {
        "id": "peaks.point.10",
        "time": 105.334653,
        "color": "rgba(29,78,216,1.0)",
        "deleted": false,
        "remarks": "",
        "editable": true,
        "labelText": "2",
        "validated": true,
        "descriptors": [
          "118",
          "208"
        ],
        "markerDegree": 2,
        "activeColumns": 2,
        "pointerHeight": 14,
        "itemsInAfterCol": 1,
        "itemsInBeforeCol": 1,
        "descriptorAfterActive": true,
        "descriptorBeforeActive": true
      }
    ],
    "participant_data": {
      "id": 49,
      "expert": false,
      "gender": "male",
      "birthDay": "1997-11-04",
      "trainingLevel": "none",
      "listeningExperience": "no_experience"
    }
  },
  "experiment_group_id": null,
  "pilot_experiment_id": {
    "id": 22,
    "title": "Group 4 (Pilot)",
    "description": "<p>Marko Rebrina</p>",
    "code": "podpil_gr4_marreb22",
    "pilot_participant_id": null,
    "Code_has_been_used": null,
    "locale": "en",
    "published_at": "2022-02-05T17:57:39.453Z",
    "created_at": "2022-02-05T17:57:27.037Z",
    "updated_at": "2022-02-10T13:40:59.501Z",
    "experiment_finished": "true",
    "participant_id": 49,
    "feedback": null,
    "mp3_files": [
      {
        "id": 73,
        "total_cues_allowed": 25,
        "description": "<p><span style=\"color:black;\">Schönberg, Arnold, Five pieces for orchestra, no. 1</span></p>",
        "title": "Task 1",
        "offsetStartTime": null,
        "offsetEndTime": null,
        "offset_start_time": 2.039,
        "offset_end_time": 118.8555,
        "mp3_file": {
          "id": 58,
          "name": "Schönberg_Fünf_Orchesterstücke_1-Vorgefühle.mp3",
          "alternativeText": "",
          "caption": "",
          "width": null,
          "height": null,
          "formats": null,
          "hash": "Schoenberg_Fuenf_Orchesterstuecke_1_Vorgefuehle_e19d05b3d5",
          "ext": ".mp3",
          "mime": "audio/mpeg",
          "size": 2512.58,
          "url": "https://points-of-discontinuity-objects.s3.eu-central-1.amazonaws.com/Schoenberg_Fuenf_Orchesterstuecke_1_Vorgefuehle_e19d05b3d5.mp3",
          "previewUrl": null,
          "provider": "aws-s3",
          "provider_metadata": null,
          "created_at": "2022-02-05T12:45:32.990Z",
          "updated_at": "2022-02-05T12:45:33.002Z"
        }
      },
      {
        "id": 74,
        "total_cues_allowed": 20,
        "description": "<p><span style=\"color:black;\">Kurtág, György, Streichquartett op. 1, iv</span></p>",
        "title": "Task 2",
        "offsetStartTime": null,
        "offsetEndTime": null,
        "offset_start_time": 2.0024,
        "offset_end_time": 100.7456,
        "mp3_file": {
          "id": 59,
          "name": "Kurtàg_ String Quartet, Op. 1 - 4.mp3",
          "alternativeText": "",
          "caption": "",
          "width": null,
          "height": null,
          "formats": null,
          "hash": "Kurtag_String_Quartet_Op_1_4_9018135892",
          "ext": ".mp3",
          "mime": "audio/mpeg",
          "size": 2387.28,
          "url": "https://points-of-discontinuity-objects.s3.eu-central-1.amazonaws.com/Kurtag_String_Quartet_Op_1_4_9018135892.mp3",
          "previewUrl": null,
          "provider": "aws-s3",
          "provider_metadata": null,
          "created_at": "2022-02-05T12:47:02.957Z",
          "updated_at": "2022-02-05T12:47:02.967Z"
        }
      },
      {
        "id": 75,
        "total_cues_allowed": 10,
        "description": "<p><span style=\"color:black;\">Lim, Liza, The heart’s ear Excerpt</span></p>",
        "title": "Task 3",
        "offsetStartTime": null,
        "offsetEndTime": null,
        "offset_start_time": 1.0233,
        "offset_end_time": 151.082,
        "mp3_file": {
          "id": 60,
          "name": "Lim_TheHeartsEar_ElisionEnsemble(Excerpt).mp3",
          "alternativeText": "",
          "caption": "",
          "width": null,
          "height": null,
          "formats": null,
          "hash": "Lim_The_Hearts_Ear_Elision_Ensemble_Excerpt_0e3664aca0",
          "ext": ".mp3",
          "mime": "audio/mpeg",
          "size": 3465.15,
          "url": "https://points-of-discontinuity-objects.s3.eu-central-1.amazonaws.com/Lim_The_Hearts_Ear_Elision_Ensemble_Excerpt_0e3664aca0.mp3",
          "previewUrl": null,
          "provider": "aws-s3",
          "provider_metadata": null,
          "created_at": "2022-02-05T12:48:13.143Z",
          "updated_at": "2022-02-05T12:48:13.152Z"
        }
      },
      {
        "id": 76,
        "total_cues_allowed": 15,
        "description": "<p><span style=\"color:black;\">Harrison, Jonty, Klang Excerpt</span></p>",
        "title": "Task 4",
        "offsetStartTime": null,
        "offsetEndTime": null,
        "offset_start_time": 2,
        "offset_end_time": 112.8606,
        "mp3_file": {
          "id": 61,
          "name": "Harrison_Klang_excerpt.mp3",
          "alternativeText": "",
          "caption": "",
          "width": null,
          "height": null,
          "formats": null,
          "hash": "Harrison_Klang_excerpt_68f61f6466",
          "ext": ".mp3",
          "mime": "audio/mpeg",
          "size": 2597.74,
          "url": "https://points-of-discontinuity-objects.s3.eu-central-1.amazonaws.com/Harrison_Klang_excerpt_68f61f6466.mp3",
          "previewUrl": null,
          "provider": "aws-s3",
          "provider_metadata": null,
          "created_at": "2022-02-05T12:49:42.755Z",
          "updated_at": "2022-02-05T12:49:42.762Z"
        }
      },
      {
        "id": 77,
        "total_cues_allowed": 65,
        "description": "<p><span style=\"color:black;\">Feldman,&nbsp;Morton, Why Patterns</span></p>",
        "title": "Task 5",
        "offsetStartTime": null,
        "offsetEndTime": null,
        "offset_start_time": 3.5709,
        "offset_end_time": 1870.8254,
        "mp3_file": {
          "id": 62,
          "name": "Feldman_Why Patterns_Blum-Vigeland-Williams_1990.mp3",
          "alternativeText": "",
          "caption": "",
          "width": null,
          "height": null,
          "formats": null,
          "hash": "Feldman_Why_Patterns_Blum_Vigeland_Williams_1990_ba7326e164",
          "ext": ".mp3",
          "mime": "audio/mpeg",
          "size": 44985.61,
          "url": "https://points-of-discontinuity-objects.s3.eu-central-1.amazonaws.com/Feldman_Why_Patterns_Blum_Vigeland_Williams_1990_ba7326e164.mp3",
          "previewUrl": null,
          "provider": "aws-s3",
          "provider_metadata": null,
          "created_at": "2022-02-05T12:51:45.945Z",
          "updated_at": "2022-02-05T12:51:45.962Z"
        }
      }
    ],
    "click_sounds": [
      {
        "id": 18,
        "name": "click_druminfected_1.mp3",
        "alternativeText": "",
        "caption": "",
        "width": null,
        "height": null,
        "formats": null,
        "hash": "click_druminfected_1_fba408ea30",
        "ext": ".mp3",
        "mime": "audio/mpeg",
        "size": 33.48,
        "url": "https://points-of-discontinuity-objects.s3.eu-central-1.amazonaws.com/click_druminfected_1_fba408ea30.mp3",
        "previewUrl": null,
        "provider": "aws-s3",
        "provider_metadata": null,
        "created_at": "2021-11-21T12:53:47.194Z",
        "updated_at": "2022-01-04T19:59:14.494Z"
      }
    ]
  },
  "task_id": "3",
  "expert": false,
  "filename": "partid-49_pilotid-22_taskid-3"
}